<?xml version="1.0" encoding="UTF-8"?><DOCUMENT><PARAMETERS VERSION="2.34" DETAILS="BASIC" LAYOUT="C:\Users\Rodney\workspace\cats\ABS-Tests\abs_straights.xml" /><TESTCASE NUMBER="1" COMMENTS="Position Train 5 in  Block Block01">
  <TRIGGER>
    <BLOCK X="13" Y="44" NAME="Block01" />
  </TRIGGER>
  <SECTION X="1" Y="2">
    <TRACKGROUP>
      <TRACK COLOR="DARK" TYPE="HORIZONTAL" />
    </TRACKGROUP>
    <SEC_EDGE EDGE="2">
      <SECSIGNAL NAME="1L">
        <PHYSIGNAL LIT="false" />
        <PANELSIGNAL COLOR="APPROACH" />
      </SECSIGNAL>
    </SEC_EDGE>
  </SECTION>
  <SECTION X="2" Y="2">
    <TRACKGROUP>
      <TRACK COLOR="DARK" TYPE="HORIZONTAL" />
    </TRACKGROUP>
  </SECTION>
  <SECTION X="3" Y="2">
    <TRACKGROUP>
      <TRACK COLOR="DARK" TYPE="HORIZONTAL" />
    </TRACKGROUP>
  </SECTION>
  <SECTION X="4" Y="2">
    <TRACKGROUP>
      <TRACK COLOR="DARK" TYPE="HORIZONTAL" />
    </TRACKGROUP>
    <SEC_EDGE EDGE="0">
      <SECSIGNAL NAME="2R">
        <PHYSIGNAL LIT="false" />
        <PANELSIGNAL COLOR="STOP" />
      </SECSIGNAL>
    </SEC_EDGE>
  </SECTION>
  <SECTION X="5" Y="2">
    <TRACKGROUP>
      <TRACK COLOR="DARK" TYPE="HORIZONTAL" />
    </TRACKGROUP>
  </SECTION>
  <SECTION X="6" Y="2">
    <TRACKGROUP>
      <TRACK COLOR="DARK" TYPE="HORIZONTAL" />
    </TRACKGROUP>
  </SECTION>
  <SECTION X="7" Y="2">
    <TRACKGROUP>
      <TRACK COLOR="DARK" TYPE="HORIZONTAL" />
    </TRACKGROUP>
  </SECTION>
  <SECTION X="8" Y="2">
    <TRACKGROUP>
      <TRACK COLOR="DARK" TYPE="HORIZONTAL" />
    </TRACKGROUP>
    <SEC_EDGE EDGE="0">
      <SECSIGNAL NAME="4R">
        <PHYSIGNAL LIT="false" />
      </SECSIGNAL>
    </SEC_EDGE>
  </SECTION>
  <SECTION X="9" Y="2">
    <TRACKGROUP>
      <TRACK COLOR="DARK" TYPE="HORIZONTAL" />
    </TRACKGROUP>
    <SEC_EDGE EDGE="2">
      <SECSIGNAL NAME="5L">
        <PHYSIGNAL LIT="false" />
      </SECSIGNAL>
    </SEC_EDGE>
  </SECTION>
  <SECTION X="10" Y="2">
    <TRACKGROUP>
      <TRACK COLOR="DARK" TYPE="HORIZONTAL" />
    </TRACKGROUP>
  </SECTION>
  <SECTION X="11" Y="2">
    <TRACKGROUP>
      <TRACK COLOR="DARK" TYPE="HORIZONTAL" />
    </TRACKGROUP>
    <SEC_EDGE EDGE="2">
      <SECSIGNAL NAME="6L">
        <PHYSIGNAL LIT="false" />
        <PANELSIGNAL COLOR="STOP" />
      </SECSIGNAL>
    </SEC_EDGE>
  </SECTION>
  <SECTION X="12" Y="2">
    <TRACKGROUP>
      <TRACK COLOR="DARK" TYPE="HORIZONTAL" />
    </TRACKGROUP>
  </SECTION>
  <SECTION X="1" Y="5">
    <TRACKGROUP>
      <TRACK COLOR="DARK" TYPE="HORIZONTAL" />
    </TRACKGROUP>
    <SEC_EDGE EDGE="2">
      <SECSIGNAL NAME="7L">
        <PHYSIGNAL LIT="false" />
      </SECSIGNAL>
    </SEC_EDGE>
  </SECTION>
  <SECTION X="2" Y="5">
    <TRACKGROUP>
      <TRACK COLOR="DARK" TYPE="HORIZONTAL" />
    </TRACKGROUP>
  </SECTION>
  <SECTION X="3" Y="5">
    <TRACKGROUP>
      <TRACK COLOR="DARK" TYPE="HORIZONTAL" />
    </TRACKGROUP>
  </SECTION>
  <SECTION X="4" Y="5">
    <TRACKGROUP>
      <TRACK COLOR="DARK" TYPE="HORIZONTAL" />
    </TRACKGROUP>
    <SEC_EDGE EDGE="0">
      <SECSIGNAL NAME="8R">
        <PHYSIGNAL LIT="false" />
      </SECSIGNAL>
    </SEC_EDGE>
  </SECTION>
  <SECTION X="5" Y="5">
    <TRACKGROUP>
      <TRACK COLOR="DARK" TYPE="HORIZONTAL" />
    </TRACKGROUP>
  </SECTION>
  <SECTION X="6" Y="5">
    <TRACKGROUP>
      <TRACK COLOR="DARK" TYPE="HORIZONTAL" />
    </TRACKGROUP>
  </SECTION>
  <SECTION X="7" Y="5">
    <TRACKGROUP>
      <TRACK COLOR="DARK" TYPE="HORIZONTAL" />
    </TRACKGROUP>
  </SECTION>
  <SECTION X="8" Y="5">
    <TRACKGROUP>
      <TRACK COLOR="DARK" TYPE="HORIZONTAL" />
    </TRACKGROUP>
    <SEC_EDGE EDGE="0">
      <SECSIGNAL NAME="10R">
        <PHYSIGNAL LIT="false" />
        <PANELSIGNAL COLOR="APPROACH" />
      </SECSIGNAL>
    </SEC_EDGE>
  </SECTION>
  <SECTION X="9" Y="5">
    <TRACKGROUP>
      <TRACK COLOR="DARK" TYPE="HORIZONTAL" />
    </TRACKGROUP>
    <SEC_EDGE EDGE="2">
      <SECSIGNAL NAME="11L">
        <PHYSIGNAL LIT="false" />
        <PANELSIGNAL COLOR="APPROACH" />
      </SECSIGNAL>
    </SEC_EDGE>
  </SECTION>
  <SECTION X="10" Y="5">
    <TRACKGROUP>
      <TRACK COLOR="DARK" TYPE="HORIZONTAL" />
    </TRACKGROUP>
  </SECTION>
  <SECTION X="11" Y="5">
    <TRACKGROUP>
      <TRACK COLOR="DARK" TYPE="HORIZONTAL" />
    </TRACKGROUP>
    <SEC_EDGE EDGE="2">
      <SECSIGNAL NAME="12L">
        <PHYSIGNAL LIT="false" />
      </SECSIGNAL>
    </SEC_EDGE>
  </SECTION>
  <SECTION X="12" Y="5">
    <TRACKGROUP>
      <TRACK COLOR="DARK" TYPE="HORIZONTAL" />
    </TRACKGROUP>
  </SECTION>
</TESTCASE><TESTCASE NUMBER="2" COMMENTS="RIGHT Arrow">
  <TRIGGER>
    <WAIT />
  </TRIGGER>
  <SECTION X="1" Y="2">
    <TRACKGROUP>
      <TRACK COLOR="OCCUPIED" TYPE="HORIZONTAL" />
    </TRACKGROUP>
    <SEC_EDGE EDGE="2">
      <SECSIGNAL NAME="1L">
        <PHYSIGNAL RULE="29" />
        <PANELSIGNAL COLOR="STOP" />
      </SECSIGNAL>
    </SEC_EDGE>
  </SECTION>
  <SECTION X="2" Y="2">
    <TRACKGROUP>
      <TRACK COLOR="OCCUPIED" TYPE="HORIZONTAL" />
    </TRACKGROUP>
  </SECTION>
  <SECTION X="4" Y="2">
    <SEC_EDGE EDGE="0">
      <SECSIGNAL NAME="2R">
        <PHYSIGNAL RULE="29" />
      </SECSIGNAL>
    </SEC_EDGE>
  </SECTION>
  <BLOCK TRAINS="1" TRAIN="CA Zephyr" NAME="Block01" />
</TESTCASE><TESTCASE NUMBER="3" COMMENTS="RIGHT Arrow">
  <TRIGGER>
    <WAIT />
  </TRIGGER>
</TESTCASE><TESTCASE NUMBER="4" COMMENTS="RIGHT Arrow">
  <TRIGGER>
    <WAIT />
  </TRIGGER>
  <SECTION X="1" Y="2">
    <TRACKGROUP>
      <TRACK COLOR="DARK" TYPE="HORIZONTAL" />
    </TRACKGROUP>
  </SECTION>
  <SECTION X="2" Y="2">
    <TRACKGROUP>
      <TRACK COLOR="DARK" TYPE="HORIZONTAL" />
    </TRACKGROUP>
  </SECTION>
  <SECTION X="3" Y="2">
    <TRACKGROUP>
      <TRACK COLOR="OCCUPIED" TYPE="HORIZONTAL" />
    </TRACKGROUP>
  </SECTION>
  <SECTION X="4" Y="2">
    <TRACKGROUP>
      <TRACK COLOR="OCCUPIED" TYPE="HORIZONTAL" />
    </TRACKGROUP>
  </SECTION>
  <BLOCK TRAINS="0" NAME="Block01" />
  <BLOCK TRAINS="1" TRAIN="CA Zephyr" NAME="Block02" />
</TESTCASE><TESTCASE NUMBER="5" COMMENTS="RIGHT Arrow">
  <TRIGGER>
    <WAIT />
  </TRIGGER>
  <SECTION X="3" Y="2">
    <TRACKGROUP>
      <TRACK COLOR="DARK" TYPE="HORIZONTAL" />
    </TRACKGROUP>
  </SECTION>
  <SECTION X="4" Y="2">
    <TRACKGROUP>
      <TRACK COLOR="DARK" TYPE="HORIZONTAL" />
    </TRACKGROUP>
    <SEC_EDGE EDGE="0">
      <SECSIGNAL NAME="2R">
        <PHYSIGNAL RULE="4" />
      </SECSIGNAL>
    </SEC_EDGE>
  </SECTION>
  <SECTION X="5" Y="2">
    <TRACKGROUP>
      <TRACK COLOR="OCCUPIED" TYPE="HORIZONTAL" />
    </TRACKGROUP>
  </SECTION>
  <SECTION X="6" Y="2">
    <TRACKGROUP>
      <TRACK COLOR="OCCUPIED" TYPE="HORIZONTAL" />
    </TRACKGROUP>
  </SECTION>
  <SECTION X="8" Y="2">
    <SEC_EDGE EDGE="0">
      <SECSIGNAL NAME="4R">
        <PHYSIGNAL RULE="29" />
      </SECSIGNAL>
    </SEC_EDGE>
  </SECTION>
  <BLOCK TRAINS="0" NAME="Block02" />
  <BLOCK TRAINS="1" TRAIN="CA Zephyr" NAME="Block03" />
</TESTCASE><TESTCASE NUMBER="6" COMMENTS="RIGHT Arrow">
  <TRIGGER>
    <WAIT />
  </TRIGGER>
  <SECTION X="5" Y="2">
    <TRACKGROUP>
      <TRACK COLOR="DARK" TYPE="HORIZONTAL" />
    </TRACKGROUP>
  </SECTION>
  <SECTION X="6" Y="2">
    <TRACKGROUP>
      <TRACK COLOR="DARK" TYPE="HORIZONTAL" />
    </TRACKGROUP>
  </SECTION>
  <SECTION X="7" Y="2">
    <TRACKGROUP>
      <TRACK COLOR="OCCUPIED" TYPE="HORIZONTAL" />
    </TRACKGROUP>
  </SECTION>
  <SECTION X="8" Y="2">
    <TRACKGROUP>
      <TRACK COLOR="OCCUPIED" TYPE="HORIZONTAL" />
    </TRACKGROUP>
  </SECTION>
  <BLOCK TRAINS="0" NAME="Block03" />
  <BLOCK TRAINS="1" TRAIN="CA Zephyr" NAME="Block04" />
</TESTCASE><TESTCASE NUMBER="7" COMMENTS="RIGHT Arrow">
  <TRIGGER>
    <WAIT />
  </TRIGGER>
  <SECTION X="1" Y="2">
    <SEC_EDGE EDGE="2">
      <SECSIGNAL NAME="1L">
        <PHYSIGNAL RULE="6" />
        <PANELSIGNAL COLOR="APPROACH" />
      </SECSIGNAL>
    </SEC_EDGE>
  </SECTION>
  <SECTION X="7" Y="2">
    <TRACKGROUP>
      <TRACK COLOR="DARK" TYPE="HORIZONTAL" />
    </TRACKGROUP>
  </SECTION>
  <SECTION X="8" Y="2">
    <TRACKGROUP>
      <TRACK COLOR="DARK" TYPE="HORIZONTAL" />
    </TRACKGROUP>
    <SEC_EDGE EDGE="0">
      <SECSIGNAL NAME="4R">
        <PHYSIGNAL RULE="6" />
      </SECSIGNAL>
    </SEC_EDGE>
  </SECTION>
  <SECTION X="9" Y="2">
    <TRACKGROUP>
      <TRACK COLOR="OCCUPIED" TYPE="HORIZONTAL" />
    </TRACKGROUP>
    <SEC_EDGE EDGE="2">
      <SECSIGNAL NAME="5L">
        <PHYSIGNAL RULE="29" />
      </SECSIGNAL>
    </SEC_EDGE>
  </SECTION>
  <SECTION X="10" Y="2">
    <TRACKGROUP>
      <TRACK COLOR="OCCUPIED" TYPE="HORIZONTAL" />
    </TRACKGROUP>
  </SECTION>
  <BLOCK TRAINS="0" NAME="Block04" />
  <BLOCK TRAINS="1" TRAIN="CA Zephyr" NAME="Block05" />
</TESTCASE><TESTCASE NUMBER="8" COMMENTS="LEFT Arrow">
  <TRIGGER>
    <WAIT />
  </TRIGGER>
  <SECTION X="1" Y="2">
    <SEC_EDGE EDGE="2">
      <SECSIGNAL NAME="1L">
        <PHYSIGNAL RULE="5" />
      </SECSIGNAL>
    </SEC_EDGE>
  </SECTION>
  <SECTION X="9" Y="2">
    <TRACKGROUP>
      <TRACK COLOR="DARK" TYPE="HORIZONTAL" />
    </TRACKGROUP>
    <SEC_EDGE EDGE="2">
      <SECSIGNAL NAME="5L">
        <PHYSIGNAL RULE="6" />
      </SECSIGNAL>
    </SEC_EDGE>
  </SECTION>
  <SECTION X="10" Y="2">
    <TRACKGROUP>
      <TRACK COLOR="DARK" TYPE="HORIZONTAL" />
    </TRACKGROUP>
  </SECTION>
  <SECTION X="11" Y="2">
    <TRACKGROUP>
      <TRACK COLOR="OCCUPIED" TYPE="HORIZONTAL" />
    </TRACKGROUP>
    <SEC_EDGE EDGE="2">
      <SECSIGNAL NAME="6L">
        <PHYSIGNAL RULE="29" />
      </SECSIGNAL>
    </SEC_EDGE>
  </SECTION>
  <SECTION X="12" Y="2">
    <TRACKGROUP>
      <TRACK COLOR="OCCUPIED" TYPE="HORIZONTAL" />
    </TRACKGROUP>
  </SECTION>
  <BLOCK TRAINS="0" NAME="Block05" />
  <BLOCK TRAINS="1" TRAIN="CA Zephyr" NAME="Block06" />
</TESTCASE><TESTCASE NUMBER="9" COMMENTS="LEFT Arrow">
  <TRIGGER>
    <WAIT />
  </TRIGGER>
</TESTCASE><TESTCASE NUMBER="10" COMMENTS="LEFT Arrow">
  <TRIGGER>
    <WAIT />
  </TRIGGER>
  <SECTION X="1" Y="2">
    <SEC_EDGE EDGE="2">
      <SECSIGNAL NAME="1L">
        <PHYSIGNAL RULE="6" />
      </SECSIGNAL>
    </SEC_EDGE>
  </SECTION>
  <SECTION X="9" Y="2">
    <TRACKGROUP>
      <TRACK COLOR="OCCUPIED" TYPE="HORIZONTAL" />
    </TRACKGROUP>
    <SEC_EDGE EDGE="2">
      <SECSIGNAL NAME="5L">
        <PHYSIGNAL RULE="29" />
      </SECSIGNAL>
    </SEC_EDGE>
  </SECTION>
  <SECTION X="10" Y="2">
    <TRACKGROUP>
      <TRACK COLOR="OCCUPIED" TYPE="HORIZONTAL" />
    </TRACKGROUP>
  </SECTION>
  <SECTION X="11" Y="2">
    <TRACKGROUP>
      <TRACK COLOR="DARK" TYPE="HORIZONTAL" />
    </TRACKGROUP>
    <SEC_EDGE EDGE="2">
      <SECSIGNAL NAME="6L">
        <PHYSIGNAL RULE="4" />
      </SECSIGNAL>
    </SEC_EDGE>
  </SECTION>
  <SECTION X="12" Y="2">
    <TRACKGROUP>
      <TRACK COLOR="DARK" TYPE="HORIZONTAL" />
    </TRACKGROUP>
  </SECTION>
  <BLOCK TRAINS="1" NAME="Block05" />
  <BLOCK TRAINS="0" NAME="Block06" />
</TESTCASE><TESTCASE NUMBER="11" COMMENTS="LEFT Arrow">
  <TRIGGER>
    <WAIT />
  </TRIGGER>
  <SECTION X="1" Y="2">
    <SEC_EDGE EDGE="2">
      <SECSIGNAL NAME="1L">
        <PHYSIGNAL RULE="29" />
        <PANELSIGNAL COLOR="STOP" />
      </SECSIGNAL>
    </SEC_EDGE>
  </SECTION>
  <SECTION X="7" Y="2">
    <TRACKGROUP>
      <TRACK COLOR="OCCUPIED" TYPE="HORIZONTAL" />
    </TRACKGROUP>
  </SECTION>
  <SECTION X="8" Y="2">
    <TRACKGROUP>
      <TRACK COLOR="OCCUPIED" TYPE="HORIZONTAL" />
    </TRACKGROUP>
    <SEC_EDGE EDGE="0">
      <SECSIGNAL NAME="4R">
        <PHYSIGNAL RULE="29" />
      </SECSIGNAL>
    </SEC_EDGE>
  </SECTION>
  <SECTION X="9" Y="2">
    <TRACKGROUP>
      <TRACK COLOR="DARK" TYPE="HORIZONTAL" />
    </TRACKGROUP>
    <SEC_EDGE EDGE="2">
      <SECSIGNAL NAME="5L">
        <PHYSIGNAL RULE="6" />
      </SECSIGNAL>
    </SEC_EDGE>
  </SECTION>
  <SECTION X="10" Y="2">
    <TRACKGROUP>
      <TRACK COLOR="DARK" TYPE="HORIZONTAL" />
    </TRACKGROUP>
  </SECTION>
  <BLOCK TRAINS="1" NAME="Block04" />
  <BLOCK TRAINS="0" NAME="Block05" />
</TESTCASE><TESTCASE NUMBER="12" COMMENTS="LEFT Arrow">
  <TRIGGER>
    <WAIT />
  </TRIGGER>
  <SECTION X="5" Y="2">
    <TRACKGROUP>
      <TRACK COLOR="OCCUPIED" TYPE="HORIZONTAL" />
    </TRACKGROUP>
  </SECTION>
  <SECTION X="6" Y="2">
    <TRACKGROUP>
      <TRACK COLOR="OCCUPIED" TYPE="HORIZONTAL" />
    </TRACKGROUP>
  </SECTION>
  <SECTION X="7" Y="2">
    <TRACKGROUP>
      <TRACK COLOR="DARK" TYPE="HORIZONTAL" />
    </TRACKGROUP>
  </SECTION>
  <SECTION X="8" Y="2">
    <TRACKGROUP>
      <TRACK COLOR="DARK" TYPE="HORIZONTAL" />
    </TRACKGROUP>
  </SECTION>
  <BLOCK TRAINS="1" NAME="Block03" />
  <BLOCK TRAINS="0" NAME="Block04" />
</TESTCASE><TESTCASE NUMBER="13" COMMENTS="LEFT Arrow">
  <TRIGGER>
    <WAIT />
  </TRIGGER>
  <SECTION X="3" Y="2">
    <TRACKGROUP>
      <TRACK COLOR="OCCUPIED" TYPE="HORIZONTAL" />
    </TRACKGROUP>
  </SECTION>
  <SECTION X="4" Y="2">
    <TRACKGROUP>
      <TRACK COLOR="OCCUPIED" TYPE="HORIZONTAL" />
    </TRACKGROUP>
    <SEC_EDGE EDGE="0">
      <SECSIGNAL NAME="2R">
        <PHYSIGNAL RULE="29" />
      </SECSIGNAL>
    </SEC_EDGE>
  </SECTION>
  <SECTION X="5" Y="2">
    <TRACKGROUP>
      <TRACK COLOR="DARK" TYPE="HORIZONTAL" />
    </TRACKGROUP>
  </SECTION>
  <SECTION X="6" Y="2">
    <TRACKGROUP>
      <TRACK COLOR="DARK" TYPE="HORIZONTAL" />
    </TRACKGROUP>
  </SECTION>
  <SECTION X="8" Y="2">
    <SEC_EDGE EDGE="0">
      <SECSIGNAL NAME="4R">
        <PHYSIGNAL RULE="6" />
      </SECSIGNAL>
    </SEC_EDGE>
  </SECTION>
  <BLOCK TRAINS="1" NAME="Block02" />
  <BLOCK TRAINS="0" NAME="Block03" />
</TESTCASE><TESTCASE NUMBER="14" COMMENTS="RIGHT Arrow">
  <TRIGGER>
    <WAIT />
  </TRIGGER>
  <SECTION X="1" Y="2">
    <SEC_EDGE EDGE="2">
      <SECSIGNAL NAME="1L">
        <PHYSIGNAL RULE="5" />
        <PANELSIGNAL COLOR="APPROACH" />
      </SECSIGNAL>
    </SEC_EDGE>
  </SECTION>
  <SECTION X="3" Y="2">
    <TRACKGROUP>
      <TRACK COLOR="DARK" TYPE="HORIZONTAL" />
    </TRACKGROUP>
  </SECTION>
  <SECTION X="4" Y="2">
    <TRACKGROUP>
      <TRACK COLOR="DARK" TYPE="HORIZONTAL" />
    </TRACKGROUP>
    <SEC_EDGE EDGE="0">
      <SECSIGNAL NAME="2R">
        <PHYSIGNAL RULE="4" />
      </SECSIGNAL>
    </SEC_EDGE>
  </SECTION>
  <SECTION X="1" Y="5">
    <TRACKGROUP>
      <TRACK COLOR="OCCUPIED" TYPE="HORIZONTAL" />
    </TRACKGROUP>
    <SEC_EDGE EDGE="2">
      <SECSIGNAL NAME="7L">
        <PHYSIGNAL RULE="29" />
      </SECSIGNAL>
    </SEC_EDGE>
  </SECTION>
  <SECTION X="2" Y="5">
    <TRACKGROUP>
      <TRACK COLOR="OCCUPIED" TYPE="HORIZONTAL" />
    </TRACKGROUP>
  </SECTION>
  <SECTION X="4" Y="5">
    <SEC_EDGE EDGE="0">
      <SECSIGNAL NAME="8R">
        <PHYSIGNAL RULE="29" />
      </SECSIGNAL>
    </SEC_EDGE>
  </SECTION>
  <BLOCK TRAINS="0" NAME="Block02" />
  <BLOCK TRAINS="1" TRAIN="CA Zephyr" NAME="Block07" />
</TESTCASE><TESTCASE NUMBER="15" COMMENTS="RIGHT Arrow">
  <TRIGGER>
    <WAIT />
  </TRIGGER>
</TESTCASE><TESTCASE NUMBER="16" COMMENTS="RIGHT Arrow">
  <TRIGGER>
    <WAIT />
  </TRIGGER>
  <SECTION X="1" Y="5">
    <TRACKGROUP>
      <TRACK COLOR="DARK" TYPE="HORIZONTAL" />
    </TRACKGROUP>
  </SECTION>
  <SECTION X="2" Y="5">
    <TRACKGROUP>
      <TRACK COLOR="DARK" TYPE="HORIZONTAL" />
    </TRACKGROUP>
  </SECTION>
  <SECTION X="3" Y="5">
    <TRACKGROUP>
      <TRACK COLOR="OCCUPIED" TYPE="HORIZONTAL" />
    </TRACKGROUP>
  </SECTION>
  <SECTION X="4" Y="5">
    <TRACKGROUP>
      <TRACK COLOR="OCCUPIED" TYPE="HORIZONTAL" />
    </TRACKGROUP>
  </SECTION>
  <BLOCK TRAINS="0" NAME="Block07" />
  <BLOCK TRAINS="1" TRAIN="CA Zephyr" NAME="Block08" />
</TESTCASE><TESTCASE NUMBER="17" COMMENTS="RIGHT Arrow">
  <TRIGGER>
    <WAIT />
  </TRIGGER>
  <SECTION X="3" Y="5">
    <TRACKGROUP>
      <TRACK COLOR="DARK" TYPE="HORIZONTAL" />
    </TRACKGROUP>
  </SECTION>
  <SECTION X="4" Y="5">
    <TRACKGROUP>
      <TRACK COLOR="DARK" TYPE="HORIZONTAL" />
    </TRACKGROUP>
    <SEC_EDGE EDGE="0">
      <SECSIGNAL NAME="8R">
        <PHYSIGNAL RULE="4" />
      </SECSIGNAL>
    </SEC_EDGE>
  </SECTION>
  <SECTION X="5" Y="5">
    <TRACKGROUP>
      <TRACK COLOR="OCCUPIED" TYPE="HORIZONTAL" />
    </TRACKGROUP>
  </SECTION>
  <SECTION X="6" Y="5">
    <TRACKGROUP>
      <TRACK COLOR="OCCUPIED" TYPE="HORIZONTAL" />
    </TRACKGROUP>
  </SECTION>
  <SECTION X="8" Y="5">
    <SEC_EDGE EDGE="0">
      <SECSIGNAL NAME="10R">
        <PHYSIGNAL RULE="29" />
        <PANELSIGNAL COLOR="STOP" />
      </SECSIGNAL>
    </SEC_EDGE>
  </SECTION>
  <BLOCK TRAINS="0" NAME="Block08" />
  <BLOCK TRAINS="1" TRAIN="CA Zephyr" NAME="Block09" />
</TESTCASE><TESTCASE NUMBER="18" COMMENTS="RIGHT Arrow">
  <TRIGGER>
    <WAIT />
  </TRIGGER>
  <SECTION X="5" Y="5">
    <TRACKGROUP>
      <TRACK COLOR="DARK" TYPE="HORIZONTAL" />
    </TRACKGROUP>
  </SECTION>
  <SECTION X="6" Y="5">
    <TRACKGROUP>
      <TRACK COLOR="DARK" TYPE="HORIZONTAL" />
    </TRACKGROUP>
  </SECTION>
  <SECTION X="7" Y="5">
    <TRACKGROUP>
      <TRACK COLOR="OCCUPIED" TYPE="HORIZONTAL" />
    </TRACKGROUP>
  </SECTION>
  <SECTION X="8" Y="5">
    <TRACKGROUP>
      <TRACK COLOR="OCCUPIED" TYPE="HORIZONTAL" />
    </TRACKGROUP>
  </SECTION>
  <BLOCK TRAINS="0" NAME="Block09" />
  <BLOCK TRAINS="1" TRAIN="CA Zephyr" NAME="Block10" />
</TESTCASE><TESTCASE NUMBER="19" COMMENTS="RIGHT Arrow">
  <TRIGGER>
    <WAIT />
  </TRIGGER>
  <SECTION X="1" Y="5">
    <SEC_EDGE EDGE="2">
      <SECSIGNAL NAME="7L">
        <PHYSIGNAL RULE="6" />
      </SECSIGNAL>
    </SEC_EDGE>
  </SECTION>
  <SECTION X="7" Y="5">
    <TRACKGROUP>
      <TRACK COLOR="DARK" TYPE="HORIZONTAL" />
    </TRACKGROUP>
  </SECTION>
  <SECTION X="8" Y="5">
    <TRACKGROUP>
      <TRACK COLOR="DARK" TYPE="HORIZONTAL" />
    </TRACKGROUP>
    <SEC_EDGE EDGE="0">
      <SECSIGNAL NAME="10R">
        <PHYSIGNAL RULE="6" />
        <PANELSIGNAL COLOR="APPROACH" />
      </SECSIGNAL>
    </SEC_EDGE>
  </SECTION>
  <SECTION X="9" Y="5">
    <TRACKGROUP>
      <TRACK COLOR="OCCUPIED" TYPE="HORIZONTAL" />
    </TRACKGROUP>
    <SEC_EDGE EDGE="2">
      <SECSIGNAL NAME="11L">
        <PHYSIGNAL RULE="29" />
        <PANELSIGNAL COLOR="STOP" />
      </SECSIGNAL>
    </SEC_EDGE>
  </SECTION>
  <SECTION X="10" Y="5">
    <TRACKGROUP>
      <TRACK COLOR="OCCUPIED" TYPE="HORIZONTAL" />
    </TRACKGROUP>
  </SECTION>
  <BLOCK TRAINS="0" NAME="Block10" />
  <BLOCK TRAINS="1" TRAIN="CA Zephyr" NAME="Block11" />
</TESTCASE><TESTCASE NUMBER="20" COMMENTS="LEFT Arrow">
  <TRIGGER>
    <WAIT />
  </TRIGGER>
  <SECTION X="1" Y="5">
    <SEC_EDGE EDGE="2">
      <SECSIGNAL NAME="7L">
        <PHYSIGNAL RULE="5" />
      </SECSIGNAL>
    </SEC_EDGE>
  </SECTION>
  <SECTION X="9" Y="5">
    <TRACKGROUP>
      <TRACK COLOR="DARK" TYPE="HORIZONTAL" />
    </TRACKGROUP>
    <SEC_EDGE EDGE="2">
      <SECSIGNAL NAME="11L">
        <PHYSIGNAL RULE="6" />
        <PANELSIGNAL COLOR="APPROACH" />
      </SECSIGNAL>
    </SEC_EDGE>
  </SECTION>
  <SECTION X="10" Y="5">
    <TRACKGROUP>
      <TRACK COLOR="DARK" TYPE="HORIZONTAL" />
    </TRACKGROUP>
  </SECTION>
  <SECTION X="11" Y="5">
    <TRACKGROUP>
      <TRACK COLOR="OCCUPIED" TYPE="HORIZONTAL" />
    </TRACKGROUP>
    <SEC_EDGE EDGE="2">
      <SECSIGNAL NAME="12L">
        <PHYSIGNAL RULE="29" />
      </SECSIGNAL>
    </SEC_EDGE>
  </SECTION>
  <SECTION X="12" Y="5">
    <TRACKGROUP>
      <TRACK COLOR="OCCUPIED" TYPE="HORIZONTAL" />
    </TRACKGROUP>
  </SECTION>
  <BLOCK TRAINS="0" NAME="Block11" />
  <BLOCK TRAINS="1" TRAIN="CA Zephyr" NAME="Block12" />
</TESTCASE><TESTCASE NUMBER="21" COMMENTS="LEFT Arrow">
  <TRIGGER>
    <WAIT />
  </TRIGGER>
</TESTCASE><TESTCASE NUMBER="22" COMMENTS="LEFT Arrow">
  <TRIGGER>
    <WAIT />
  </TRIGGER>
  <SECTION X="1" Y="5">
    <SEC_EDGE EDGE="2">
      <SECSIGNAL NAME="7L">
        <PHYSIGNAL RULE="6" />
      </SECSIGNAL>
    </SEC_EDGE>
  </SECTION>
  <SECTION X="9" Y="5">
    <TRACKGROUP>
      <TRACK COLOR="OCCUPIED" TYPE="HORIZONTAL" />
    </TRACKGROUP>
    <SEC_EDGE EDGE="2">
      <SECSIGNAL NAME="11L">
        <PHYSIGNAL RULE="29" />
        <PANELSIGNAL COLOR="STOP" />
      </SECSIGNAL>
    </SEC_EDGE>
  </SECTION>
  <SECTION X="10" Y="5">
    <TRACKGROUP>
      <TRACK COLOR="OCCUPIED" TYPE="HORIZONTAL" />
    </TRACKGROUP>
  </SECTION>
  <SECTION X="11" Y="5">
    <TRACKGROUP>
      <TRACK COLOR="DARK" TYPE="HORIZONTAL" />
    </TRACKGROUP>
    <SEC_EDGE EDGE="2">
      <SECSIGNAL NAME="12L">
        <PHYSIGNAL RULE="4" />
      </SECSIGNAL>
    </SEC_EDGE>
  </SECTION>
  <SECTION X="12" Y="5">
    <TRACKGROUP>
      <TRACK COLOR="DARK" TYPE="HORIZONTAL" />
    </TRACKGROUP>
  </SECTION>
  <BLOCK TRAINS="1" NAME="Block11" />
  <BLOCK TRAINS="0" NAME="Block12" />
</TESTCASE><TESTCASE NUMBER="23" COMMENTS="LEFT Arrow">
  <TRIGGER>
    <WAIT />
  </TRIGGER>
  <SECTION X="1" Y="5">
    <SEC_EDGE EDGE="2">
      <SECSIGNAL NAME="7L">
        <PHYSIGNAL RULE="29" />
      </SECSIGNAL>
    </SEC_EDGE>
  </SECTION>
  <SECTION X="7" Y="5">
    <TRACKGROUP>
      <TRACK COLOR="OCCUPIED" TYPE="HORIZONTAL" />
    </TRACKGROUP>
  </SECTION>
  <SECTION X="8" Y="5">
    <TRACKGROUP>
      <TRACK COLOR="OCCUPIED" TYPE="HORIZONTAL" />
    </TRACKGROUP>
    <SEC_EDGE EDGE="0">
      <SECSIGNAL NAME="10R">
        <PHYSIGNAL RULE="29" />
        <PANELSIGNAL COLOR="STOP" />
      </SECSIGNAL>
    </SEC_EDGE>
  </SECTION>
  <SECTION X="9" Y="5">
    <TRACKGROUP>
      <TRACK COLOR="DARK" TYPE="HORIZONTAL" />
    </TRACKGROUP>
    <SEC_EDGE EDGE="2">
      <SECSIGNAL NAME="11L">
        <PHYSIGNAL RULE="6" />
        <PANELSIGNAL COLOR="APPROACH" />
      </SECSIGNAL>
    </SEC_EDGE>
  </SECTION>
  <SECTION X="10" Y="5">
    <TRACKGROUP>
      <TRACK COLOR="DARK" TYPE="HORIZONTAL" />
    </TRACKGROUP>
  </SECTION>
  <BLOCK TRAINS="1" NAME="Block10" />
  <BLOCK TRAINS="0" NAME="Block11" />
</TESTCASE><TESTCASE NUMBER="24" COMMENTS="LEFT Arrow">
  <TRIGGER>
    <WAIT />
  </TRIGGER>
  <SECTION X="5" Y="5">
    <TRACKGROUP>
      <TRACK COLOR="OCCUPIED" TYPE="HORIZONTAL" />
    </TRACKGROUP>
  </SECTION>
  <SECTION X="6" Y="5">
    <TRACKGROUP>
      <TRACK COLOR="OCCUPIED" TYPE="HORIZONTAL" />
    </TRACKGROUP>
  </SECTION>
  <SECTION X="7" Y="5">
    <TRACKGROUP>
      <TRACK COLOR="DARK" TYPE="HORIZONTAL" />
    </TRACKGROUP>
  </SECTION>
  <SECTION X="8" Y="5">
    <TRACKGROUP>
      <TRACK COLOR="DARK" TYPE="HORIZONTAL" />
    </TRACKGROUP>
  </SECTION>
  <BLOCK TRAINS="1" NAME="Block09" />
  <BLOCK TRAINS="0" NAME="Block10" />
</TESTCASE><TESTCASE NUMBER="25" COMMENTS="LEFT Arrow">
  <TRIGGER>
    <WAIT />
  </TRIGGER>
  <SECTION X="3" Y="5">
    <TRACKGROUP>
      <TRACK COLOR="OCCUPIED" TYPE="HORIZONTAL" />
    </TRACKGROUP>
  </SECTION>
  <SECTION X="4" Y="5">
    <TRACKGROUP>
      <TRACK COLOR="OCCUPIED" TYPE="HORIZONTAL" />
    </TRACKGROUP>
    <SEC_EDGE EDGE="0">
      <SECSIGNAL NAME="8R">
        <PHYSIGNAL RULE="29" />
      </SECSIGNAL>
    </SEC_EDGE>
  </SECTION>
  <SECTION X="5" Y="5">
    <TRACKGROUP>
      <TRACK COLOR="DARK" TYPE="HORIZONTAL" />
    </TRACKGROUP>
  </SECTION>
  <SECTION X="6" Y="5">
    <TRACKGROUP>
      <TRACK COLOR="DARK" TYPE="HORIZONTAL" />
    </TRACKGROUP>
  </SECTION>
  <SECTION X="8" Y="5">
    <SEC_EDGE EDGE="0">
      <SECSIGNAL NAME="10R">
        <PHYSIGNAL RULE="6" />
        <PANELSIGNAL COLOR="APPROACH" />
      </SECSIGNAL>
    </SEC_EDGE>
  </SECTION>
  <BLOCK TRAINS="1" NAME="Block08" />
  <BLOCK TRAINS="0" NAME="Block09" />
</TESTCASE></DOCUMENT>