<?xml version="1.0" encoding="UTF-8"?><DOCUMENT><PARAMETERS VERSION="2.34" DETAILS="BASIC" LAYOUT="C:\Users\Rodney\workspace\cats\ABS-Tests\simple5-abs.xml" /><TESTCASE NUMBER="1" COMMENTS="Position Train 1 in  Block Block 1">
  <TRIGGER>
    <BLOCK X="16" Y="45" NAME="Block 1" />
  </TRIGGER>
  <SECTION X="1" Y="2">
    <TRACKGROUP>
      <TRACK COLOR="EMPTY" TYPE="HORIZONTAL" />
    </TRACKGROUP>
  </SECTION>
  <SECTION X="2" Y="2">
    <TRACKGROUP>
      <TRACK COLOR="EMPTY" TYPE="HORIZONTAL" />
    </TRACKGROUP>
    <SEC_EDGE EDGE="0">
      <SECSIGNAL NAME="1R">
        <PHYSIGNAL LIT="false" />
        <PANELSIGNAL COLOR="STOP" />
      </SECSIGNAL>
    </SEC_EDGE>
  </SECTION>
  <SECTION X="3" Y="2">
    <TRACKGROUP>
      <TRACK COLOR="EMPTY" TYPE="HORIZONTAL" />
    </TRACKGROUP>
    <SEC_EDGE EDGE="2">
      <SECSIGNAL NAME="2L">
        <PHYSIGNAL LIT="false" />
      </SECSIGNAL>
    </SEC_EDGE>
  </SECTION>
  <SECTION X="4" Y="2">
    <TRACKGROUP>
      <TRACK COLOR="EMPTY" TYPE="HORIZONTAL" />
    </TRACKGROUP>
    <SEC_EDGE EDGE="0">
      <SECSIGNAL NAME="2R">
        <PHYSIGNAL LIT="false" />
      </SECSIGNAL>
    </SEC_EDGE>
  </SECTION>
  <SECTION X="5" Y="2">
    <TRACKGROUP>
      <TRACK COLOR="EMPTY" TYPE="HORIZONTAL" />
    </TRACKGROUP>
    <SEC_EDGE EDGE="2">
      <SECSIGNAL NAME="3L">
        <PHYSIGNAL LIT="false" />
      </SECSIGNAL>
    </SEC_EDGE>
  </SECTION>
  <SECTION X="6" Y="2">
    <TRACKGROUP>
      <TRACK COLOR="EMPTY" TYPE="HORIZONTAL" />
    </TRACKGROUP>
    <SEC_EDGE EDGE="0">
      <SECSIGNAL NAME="3R">
        <PHYSIGNAL LIT="false" />
      </SECSIGNAL>
    </SEC_EDGE>
  </SECTION>
  <SECTION X="7" Y="2">
    <TRACKGROUP>
      <TRACK COLOR="EMPTY" TYPE="HORIZONTAL" />
    </TRACKGROUP>
    <SEC_EDGE EDGE="2">
      <SECSIGNAL NAME="4L">
        <PHYSIGNAL LIT="false" />
      </SECSIGNAL>
    </SEC_EDGE>
  </SECTION>
  <SECTION X="8" Y="2">
    <TRACKGROUP>
      <TRACK COLOR="EMPTY" TYPE="HORIZONTAL" />
    </TRACKGROUP>
    <SEC_EDGE EDGE="0">
      <SECSIGNAL NAME="4R">
        <PHYSIGNAL LIT="false" />
      </SECSIGNAL>
    </SEC_EDGE>
  </SECTION>
  <SECTION X="9" Y="2">
    <TRACKGROUP>
      <TRACK COLOR="EMPTY" TYPE="HORIZONTAL" />
    </TRACKGROUP>
    <SEC_EDGE EDGE="2">
      <SECSIGNAL NAME="5L">
        <PHYSIGNAL LIT="false" />
        <PANELSIGNAL COLOR="STOP" />
      </SECSIGNAL>
    </SEC_EDGE>
  </SECTION>
  <SECTION X="10" Y="2">
    <TRACKGROUP>
      <TRACK COLOR="EMPTY" TYPE="HORIZONTAL" />
    </TRACKGROUP>
  </SECTION>
</TESTCASE><TESTCASE NUMBER="2" COMMENTS="Occupy Block Block 1">
  <TRIGGER>
    <BLOCK X="11" Y="45" NAME="Block 1" />
  </TRIGGER>
  <BLOCK TRAINS="1" TRAIN="W Express" NAME="Block 1" />
</TESTCASE><TESTCASE NUMBER="3" COMMENTS="Occupy Block Block 2">
  <TRIGGER>
    <BLOCK X="43" Y="44" NAME="Block 2" />
  </TRIGGER>
  <SECTION X="1" Y="2">
    <TRACKGROUP>
      <TRACK COLOR="OCCUPIED" TYPE="HORIZONTAL" />
    </TRACKGROUP>
  </SECTION>
  <SECTION X="2" Y="2">
    <TRACKGROUP>
      <TRACK COLOR="OCCUPIED" TYPE="HORIZONTAL" />
    </TRACKGROUP>
    <SEC_EDGE EDGE="0">
      <SECSIGNAL NAME="1R">
        <PHYSIGNAL RULE="29" />
      </SECSIGNAL>
    </SEC_EDGE>
  </SECTION>
</TESTCASE><TESTCASE NUMBER="4" COMMENTS="Unoccupy Block Block 1">
  <TRIGGER>
    <BLOCK X="18" Y="43" NAME="Block 1" />
  </TRIGGER>
  <SECTION X="3" Y="2">
    <TRACKGROUP>
      <TRACK COLOR="OCCUPIED" TYPE="HORIZONTAL" />
    </TRACKGROUP>
    <SEC_EDGE EDGE="2">
      <SECSIGNAL NAME="2L">
        <PHYSIGNAL RULE="29" />
      </SECSIGNAL>
    </SEC_EDGE>
  </SECTION>
  <SECTION X="4" Y="2">
    <TRACKGROUP>
      <TRACK COLOR="OCCUPIED" TYPE="HORIZONTAL" />
    </TRACKGROUP>
    <SEC_EDGE EDGE="0">
      <SECSIGNAL NAME="2R">
        <PHYSIGNAL RULE="29" />
      </SECSIGNAL>
    </SEC_EDGE>
  </SECTION>
  <SECTION X="6" Y="2">
    <SEC_EDGE EDGE="0">
      <SECSIGNAL NAME="3R">
        <PHYSIGNAL RULE="6" />
      </SECSIGNAL>
    </SEC_EDGE>
  </SECTION>
  <SECTION X="8" Y="2">
    <SEC_EDGE EDGE="0">
      <SECSIGNAL NAME="4R">
        <PHYSIGNAL RULE="5" />
      </SECSIGNAL>
    </SEC_EDGE>
  </SECTION>
  <BLOCK TRAINS="0" NAME="Block 1" />
  <BLOCK TRAINS="1" TRAIN="W Express" NAME="Block 2" />
</TESTCASE><TESTCASE NUMBER="5" COMMENTS="Occupy Block Block 3">
  <TRIGGER>
    <BLOCK X="71" Y="42" NAME="Block 3" />
  </TRIGGER>
  <SECTION X="1" Y="2">
    <TRACKGROUP>
      <TRACK COLOR="EMPTY" TYPE="HORIZONTAL" />
    </TRACKGROUP>
  </SECTION>
  <SECTION X="2" Y="2">
    <TRACKGROUP>
      <TRACK COLOR="EMPTY" TYPE="HORIZONTAL" />
    </TRACKGROUP>
    <SEC_EDGE EDGE="0">
      <SECSIGNAL NAME="1R">
        <PHYSIGNAL RULE="4" />
      </SECSIGNAL>
    </SEC_EDGE>
  </SECTION>
</TESTCASE><TESTCASE NUMBER="6" COMMENTS="Unoccupy Block Block 2">
  <TRIGGER>
    <BLOCK X="42" Y="43" NAME="Block 2" />
  </TRIGGER>
  <SECTION X="5" Y="2">
    <TRACKGROUP>
      <TRACK COLOR="OCCUPIED" TYPE="HORIZONTAL" />
    </TRACKGROUP>
    <SEC_EDGE EDGE="2">
      <SECSIGNAL NAME="3L">
        <PHYSIGNAL RULE="29" />
      </SECSIGNAL>
    </SEC_EDGE>
  </SECTION>
  <SECTION X="6" Y="2">
    <TRACKGROUP>
      <TRACK COLOR="OCCUPIED" TYPE="HORIZONTAL" />
    </TRACKGROUP>
    <SEC_EDGE EDGE="0">
      <SECSIGNAL NAME="3R">
        <PHYSIGNAL RULE="29" />
      </SECSIGNAL>
    </SEC_EDGE>
  </SECTION>
  <SECTION X="8" Y="2">
    <SEC_EDGE EDGE="0">
      <SECSIGNAL NAME="4R">
        <PHYSIGNAL RULE="6" />
      </SECSIGNAL>
    </SEC_EDGE>
  </SECTION>
  <BLOCK TRAINS="0" NAME="Block 2" />
  <BLOCK TRAINS="1" TRAIN="W Express" NAME="Block 3" />
</TESTCASE><TESTCASE NUMBER="7" COMMENTS="Occupy Block Block 4">
  <TRIGGER>
    <BLOCK X="101" Y="43" NAME="Block 4" />
  </TRIGGER>
  <SECTION X="3" Y="2">
    <TRACKGROUP>
      <TRACK COLOR="EMPTY" TYPE="HORIZONTAL" />
    </TRACKGROUP>
    <SEC_EDGE EDGE="2">
      <SECSIGNAL NAME="2L">
        <PHYSIGNAL RULE="6" />
      </SECSIGNAL>
    </SEC_EDGE>
  </SECTION>
  <SECTION X="4" Y="2">
    <TRACKGROUP>
      <TRACK COLOR="EMPTY" TYPE="HORIZONTAL" />
    </TRACKGROUP>
    <SEC_EDGE EDGE="0">
      <SECSIGNAL NAME="2R">
        <PHYSIGNAL RULE="6" />
      </SECSIGNAL>
    </SEC_EDGE>
  </SECTION>
</TESTCASE><TESTCASE NUMBER="8" COMMENTS="Unoccupy Block Block 3">
  <TRIGGER>
    <BLOCK X="80" Y="43" NAME="Block 3" />
  </TRIGGER>
  <SECTION X="7" Y="2">
    <TRACKGROUP>
      <TRACK COLOR="OCCUPIED" TYPE="HORIZONTAL" />
    </TRACKGROUP>
    <SEC_EDGE EDGE="2">
      <SECSIGNAL NAME="4L">
        <PHYSIGNAL RULE="29" />
      </SECSIGNAL>
    </SEC_EDGE>
  </SECTION>
  <SECTION X="8" Y="2">
    <TRACKGROUP>
      <TRACK COLOR="OCCUPIED" TYPE="HORIZONTAL" />
    </TRACKGROUP>
    <SEC_EDGE EDGE="0">
      <SECSIGNAL NAME="4R">
        <PHYSIGNAL RULE="29" />
      </SECSIGNAL>
    </SEC_EDGE>
  </SECTION>
  <BLOCK TRAINS="0" NAME="Block 3" />
  <BLOCK TRAINS="1" TRAIN="W Express" NAME="Block 4" />
</TESTCASE><TESTCASE NUMBER="9" COMMENTS="Occupy Block Block 5">
  <TRIGGER>
    <BLOCK X="134" Y="43" NAME="Block 5" />
  </TRIGGER>
  <SECTION X="3" Y="2">
    <SEC_EDGE EDGE="2">
      <SECSIGNAL NAME="2L">
        <PHYSIGNAL RULE="5" />
      </SECSIGNAL>
    </SEC_EDGE>
  </SECTION>
  <SECTION X="5" Y="2">
    <TRACKGROUP>
      <TRACK COLOR="EMPTY" TYPE="HORIZONTAL" />
    </TRACKGROUP>
    <SEC_EDGE EDGE="2">
      <SECSIGNAL NAME="3L">
        <PHYSIGNAL RULE="6" />
      </SECSIGNAL>
    </SEC_EDGE>
  </SECTION>
  <SECTION X="6" Y="2">
    <TRACKGROUP>
      <TRACK COLOR="EMPTY" TYPE="HORIZONTAL" />
    </TRACKGROUP>
    <SEC_EDGE EDGE="0">
      <SECSIGNAL NAME="3R">
        <PHYSIGNAL RULE="5" />
      </SECSIGNAL>
    </SEC_EDGE>
  </SECTION>
</TESTCASE><TESTCASE NUMBER="10" COMMENTS="Unoccupy Block Block 4">
  <TRIGGER>
    <BLOCK X="96" Y="44" NAME="Block 4" />
  </TRIGGER>
  <SECTION X="9" Y="2">
    <TRACKGROUP>
      <TRACK COLOR="OCCUPIED" TYPE="HORIZONTAL" />
    </TRACKGROUP>
    <SEC_EDGE EDGE="2">
      <SECSIGNAL NAME="5L">
        <PHYSIGNAL RULE="29" />
      </SECSIGNAL>
    </SEC_EDGE>
  </SECTION>
  <SECTION X="10" Y="2">
    <TRACKGROUP>
      <TRACK COLOR="OCCUPIED" TYPE="HORIZONTAL" />
    </TRACKGROUP>
  </SECTION>
  <BLOCK TRAINS="0" NAME="Block 4" />
  <BLOCK TRAINS="1" TRAIN="W Express" NAME="Block 5" />
</TESTCASE><TESTCASE NUMBER="11" COMMENTS="Unoccupy Block Block 5">
  <TRIGGER>
    <BLOCK X="136" Y="41" NAME="Block 5" />
  </TRIGGER>
  <SECTION X="3" Y="2">
    <SEC_EDGE EDGE="2">
      <SECSIGNAL NAME="2L">
        <PHYSIGNAL RULE="0" />
      </SECSIGNAL>
    </SEC_EDGE>
  </SECTION>
  <SECTION X="5" Y="2">
    <SEC_EDGE EDGE="2">
      <SECSIGNAL NAME="3L">
        <PHYSIGNAL RULE="5" />
      </SECSIGNAL>
    </SEC_EDGE>
  </SECTION>
  <SECTION X="7" Y="2">
    <TRACKGROUP>
      <TRACK COLOR="EMPTY" TYPE="HORIZONTAL" />
    </TRACKGROUP>
    <SEC_EDGE EDGE="2">
      <SECSIGNAL NAME="4L">
        <PHYSIGNAL RULE="6" />
      </SECSIGNAL>
    </SEC_EDGE>
  </SECTION>
  <SECTION X="8" Y="2">
    <TRACKGROUP>
      <TRACK COLOR="EMPTY" TYPE="HORIZONTAL" />
    </TRACKGROUP>
    <SEC_EDGE EDGE="0">
      <SECSIGNAL NAME="4R">
        <PHYSIGNAL RULE="0" />
      </SECSIGNAL>
    </SEC_EDGE>
  </SECTION>
</TESTCASE><TESTCASE NUMBER="12" COMMENTS="Occupy Block Block 5">
  <TRIGGER>
    <BLOCK X="142" Y="44" NAME="Block 5" />
  </TRIGGER>
  <SECTION X="9" Y="2">
    <TRACKGROUP>
      <TRACK COLOR="EMPTY" TYPE="HORIZONTAL" />
    </TRACKGROUP>
    <SEC_EDGE EDGE="2">
      <SECSIGNAL NAME="5L">
        <PHYSIGNAL RULE="4" />
      </SECSIGNAL>
    </SEC_EDGE>
  </SECTION>
  <SECTION X="10" Y="2">
    <TRACKGROUP>
      <TRACK COLOR="EMPTY" TYPE="HORIZONTAL" />
    </TRACKGROUP>
  </SECTION>
</TESTCASE><TESTCASE NUMBER="13" COMMENTS="Occupy Block Block 4">
  <TRIGGER>
    <BLOCK X="93" Y="47" NAME="Block 4" />
  </TRIGGER>
  <SECTION X="9" Y="2">
    <TRACKGROUP>
      <TRACK COLOR="OCCUPIED" TYPE="HORIZONTAL" />
    </TRACKGROUP>
    <SEC_EDGE EDGE="2">
      <SECSIGNAL NAME="5L">
        <PHYSIGNAL RULE="29" />
      </SECSIGNAL>
    </SEC_EDGE>
  </SECTION>
  <SECTION X="10" Y="2">
    <TRACKGROUP>
      <TRACK COLOR="OCCUPIED" TYPE="HORIZONTAL" />
    </TRACKGROUP>
  </SECTION>
</TESTCASE><TESTCASE NUMBER="14" COMMENTS="Unoccupy Block Block 5">
  <TRIGGER>
    <BLOCK X="139" Y="41" NAME="Block 5" />
  </TRIGGER>
  <SECTION X="3" Y="2">
    <SEC_EDGE EDGE="2">
      <SECSIGNAL NAME="2L">
        <PHYSIGNAL RULE="5" />
      </SECSIGNAL>
    </SEC_EDGE>
  </SECTION>
  <SECTION X="5" Y="2">
    <SEC_EDGE EDGE="2">
      <SECSIGNAL NAME="3L">
        <PHYSIGNAL RULE="6" />
      </SECSIGNAL>
    </SEC_EDGE>
  </SECTION>
  <SECTION X="7" Y="2">
    <TRACKGROUP>
      <TRACK COLOR="OCCUPIED" TYPE="HORIZONTAL" />
    </TRACKGROUP>
    <SEC_EDGE EDGE="2">
      <SECSIGNAL NAME="4L">
        <PHYSIGNAL RULE="29" />
      </SECSIGNAL>
    </SEC_EDGE>
  </SECTION>
  <SECTION X="8" Y="2">
    <TRACKGROUP>
      <TRACK COLOR="OCCUPIED" TYPE="HORIZONTAL" />
    </TRACKGROUP>
    <SEC_EDGE EDGE="0">
      <SECSIGNAL NAME="4R">
        <PHYSIGNAL RULE="29" />
      </SECSIGNAL>
    </SEC_EDGE>
  </SECTION>
  <BLOCK TRAINS="1" NAME="Block 4" />
  <BLOCK TRAINS="0" NAME="Block 5" />
</TESTCASE><TESTCASE NUMBER="15" COMMENTS="Occupy Block Block 3">
  <TRIGGER>
    <BLOCK X="72" Y="43" NAME="Block 3" />
  </TRIGGER>
  <SECTION X="9" Y="2">
    <TRACKGROUP>
      <TRACK COLOR="EMPTY" TYPE="HORIZONTAL" />
    </TRACKGROUP>
    <SEC_EDGE EDGE="2">
      <SECSIGNAL NAME="5L">
        <PHYSIGNAL RULE="4" />
      </SECSIGNAL>
    </SEC_EDGE>
  </SECTION>
  <SECTION X="10" Y="2">
    <TRACKGROUP>
      <TRACK COLOR="EMPTY" TYPE="HORIZONTAL" />
    </TRACKGROUP>
  </SECTION>
</TESTCASE><TESTCASE NUMBER="16" COMMENTS="Unoccupy Block Block 4">
  <TRIGGER>
    <BLOCK X="108" Y="42" NAME="Block 4" />
  </TRIGGER>
  <SECTION X="3" Y="2">
    <SEC_EDGE EDGE="2">
      <SECSIGNAL NAME="2L">
        <PHYSIGNAL RULE="6" />
      </SECSIGNAL>
    </SEC_EDGE>
  </SECTION>
  <SECTION X="5" Y="2">
    <TRACKGROUP>
      <TRACK COLOR="OCCUPIED" TYPE="HORIZONTAL" />
    </TRACKGROUP>
    <SEC_EDGE EDGE="2">
      <SECSIGNAL NAME="3L">
        <PHYSIGNAL RULE="29" />
      </SECSIGNAL>
    </SEC_EDGE>
  </SECTION>
  <SECTION X="6" Y="2">
    <TRACKGROUP>
      <TRACK COLOR="OCCUPIED" TYPE="HORIZONTAL" />
    </TRACKGROUP>
    <SEC_EDGE EDGE="0">
      <SECSIGNAL NAME="3R">
        <PHYSIGNAL RULE="29" />
      </SECSIGNAL>
    </SEC_EDGE>
  </SECTION>
  <BLOCK TRAINS="1" NAME="Block 3" />
  <BLOCK TRAINS="0" NAME="Block 4" />
</TESTCASE><TESTCASE NUMBER="17" COMMENTS="Occupy Block Block 2">
  <TRIGGER>
    <BLOCK X="53" Y="43" NAME="Block 2" />
  </TRIGGER>
  <SECTION X="7" Y="2">
    <TRACKGROUP>
      <TRACK COLOR="EMPTY" TYPE="HORIZONTAL" />
    </TRACKGROUP>
    <SEC_EDGE EDGE="2">
      <SECSIGNAL NAME="4L">
        <PHYSIGNAL RULE="6" />
      </SECSIGNAL>
    </SEC_EDGE>
  </SECTION>
  <SECTION X="8" Y="2">
    <TRACKGROUP>
      <TRACK COLOR="EMPTY" TYPE="HORIZONTAL" />
    </TRACKGROUP>
    <SEC_EDGE EDGE="0">
      <SECSIGNAL NAME="4R">
        <PHYSIGNAL RULE="6" />
      </SECSIGNAL>
    </SEC_EDGE>
  </SECTION>
</TESTCASE><TESTCASE NUMBER="18" COMMENTS="Unoccupy Block Block 3">
  <TRIGGER>
    <BLOCK X="71" Y="43" NAME="Block 3" />
  </TRIGGER>
  <SECTION X="3" Y="2">
    <TRACKGROUP>
      <TRACK COLOR="OCCUPIED" TYPE="HORIZONTAL" />
    </TRACKGROUP>
    <SEC_EDGE EDGE="2">
      <SECSIGNAL NAME="2L">
        <PHYSIGNAL RULE="29" />
      </SECSIGNAL>
    </SEC_EDGE>
  </SECTION>
  <SECTION X="4" Y="2">
    <TRACKGROUP>
      <TRACK COLOR="OCCUPIED" TYPE="HORIZONTAL" />
    </TRACKGROUP>
    <SEC_EDGE EDGE="0">
      <SECSIGNAL NAME="2R">
        <PHYSIGNAL RULE="29" />
      </SECSIGNAL>
    </SEC_EDGE>
  </SECTION>
  <BLOCK TRAINS="1" NAME="Block 2" />
  <BLOCK TRAINS="0" NAME="Block 3" />
</TESTCASE><TESTCASE NUMBER="19" COMMENTS="Occupy Block Block 1">
  <TRIGGER>
    <BLOCK X="10" Y="44" NAME="Block 1" />
  </TRIGGER>
  <SECTION X="5" Y="2">
    <TRACKGROUP>
      <TRACK COLOR="EMPTY" TYPE="HORIZONTAL" />
    </TRACKGROUP>
    <SEC_EDGE EDGE="2">
      <SECSIGNAL NAME="3L">
        <PHYSIGNAL RULE="5" />
      </SECSIGNAL>
    </SEC_EDGE>
  </SECTION>
  <SECTION X="6" Y="2">
    <TRACKGROUP>
      <TRACK COLOR="EMPTY" TYPE="HORIZONTAL" />
    </TRACKGROUP>
    <SEC_EDGE EDGE="0">
      <SECSIGNAL NAME="3R">
        <PHYSIGNAL RULE="6" />
      </SECSIGNAL>
    </SEC_EDGE>
  </SECTION>
  <SECTION X="8" Y="2">
    <SEC_EDGE EDGE="0">
      <SECSIGNAL NAME="4R">
        <PHYSIGNAL RULE="5" />
      </SECSIGNAL>
    </SEC_EDGE>
  </SECTION>
</TESTCASE><TESTCASE NUMBER="20" COMMENTS="Unoccupy Block Block 2">
  <TRIGGER>
    <BLOCK X="43" Y="42" NAME="Block 2" />
  </TRIGGER>
  <SECTION X="1" Y="2">
    <TRACKGROUP>
      <TRACK COLOR="OCCUPIED" TYPE="HORIZONTAL" />
    </TRACKGROUP>
  </SECTION>
  <SECTION X="2" Y="2">
    <TRACKGROUP>
      <TRACK COLOR="OCCUPIED" TYPE="HORIZONTAL" />
    </TRACKGROUP>
    <SEC_EDGE EDGE="0">
      <SECSIGNAL NAME="1R">
        <PHYSIGNAL RULE="29" />
      </SECSIGNAL>
    </SEC_EDGE>
  </SECTION>
  <BLOCK TRAINS="1" NAME="Block 1" />
  <BLOCK TRAINS="0" NAME="Block 2" />
</TESTCASE><TESTCASE NUMBER="21" COMMENTS="Unoccupy Block Block 1">
  <TRIGGER>
    <BLOCK X="10" Y="42" NAME="Block 1" />
  </TRIGGER>
  <SECTION X="3" Y="2">
    <TRACKGROUP>
      <TRACK COLOR="EMPTY" TYPE="HORIZONTAL" />
    </TRACKGROUP>
    <SEC_EDGE EDGE="2">
      <SECSIGNAL NAME="2L">
        <PHYSIGNAL RULE="0" />
      </SECSIGNAL>
    </SEC_EDGE>
  </SECTION>
  <SECTION X="4" Y="2">
    <TRACKGROUP>
      <TRACK COLOR="EMPTY" TYPE="HORIZONTAL" />
    </TRACKGROUP>
    <SEC_EDGE EDGE="0">
      <SECSIGNAL NAME="2R">
        <PHYSIGNAL RULE="6" />
      </SECSIGNAL>
    </SEC_EDGE>
  </SECTION>
  <SECTION X="6" Y="2">
    <SEC_EDGE EDGE="0">
      <SECSIGNAL NAME="3R">
        <PHYSIGNAL RULE="5" />
      </SECSIGNAL>
    </SEC_EDGE>
  </SECTION>
  <SECTION X="8" Y="2">
    <SEC_EDGE EDGE="0">
      <SECSIGNAL NAME="4R">
        <PHYSIGNAL RULE="0" />
      </SECSIGNAL>
    </SEC_EDGE>
  </SECTION>
</TESTCASE></DOCUMENT>