<?xml version="1.0" encoding="UTF-8"?><DOCUMENT><PARAMETERS VERSION="2.34" DETAILS="BASIC" LAYOUT="C:\Users\Rodney\workspace\cats\ABS-Tests\trainLabels.xml" /><TESTCASE NUMBER="1" COMMENTS="Setting Sensor">
  <TRIGGER>
    <IOSPEC JMRIPREFIX="IS" DECADDR="1" USER_NAME="Detect 1" STATE="4" DELAY="" />
  </TRIGGER>
  <SECTION X="1" Y="2">
    <TRACKGROUP>
      <TRACK COLOR="EMPTY" TYPE="HORIZONTAL" />
    </TRACKGROUP>
  </SECTION>
  <SECTION X="2" Y="2">
    <TRACKGROUP>
      <TRACK COLOR="EMPTY" TYPE="HORIZONTAL" />
    </TRACKGROUP>
  </SECTION>
  <SECTION X="3" Y="2">
    <TRACKGROUP>
      <TRACK COLOR="EMPTY" TYPE="HORIZONTAL" />
    </TRACKGROUP>
  </SECTION>
  <SECTION X="4" Y="2">
    <TRACKGROUP>
      <TRACK COLOR="EMPTY" TYPE="HORIZONTAL" />
    </TRACKGROUP>
  </SECTION>
  <SECTION X="5" Y="2">
    <TRACKGROUP>
      <TRACK COLOR="EMPTY" TYPE="HORIZONTAL" />
    </TRACKGROUP>
  </SECTION>
  <SECTION X="6" Y="2">
    <TRACKGROUP>
      <TRACK COLOR="EMPTY" TYPE="HORIZONTAL" />
    </TRACKGROUP>
  </SECTION>
  <SECTION X="7" Y="2">
    <TRACKGROUP>
      <TRACK COLOR="DARK" TYPE="HORIZONTAL" />
    </TRACKGROUP>
  </SECTION>
  <SECTION X="8" Y="2">
    <TRACKGROUP>
      <TRACK COLOR="DARK" TYPE="HORIZONTAL" />
    </TRACKGROUP>
  </SECTION>
  <SECTION X="9" Y="2">
    <TRACKGROUP>
      <TRACK COLOR="DARK" TYPE="HORIZONTAL" />
    </TRACKGROUP>
  </SECTION>
  <SECTION X="10" Y="2">
    <TRACKGROUP>
      <TRACK COLOR="DARK" TYPE="HORIZONTAL" />
    </TRACKGROUP>
  </SECTION>
  <SECTION X="11" Y="2">
    <TRACKGROUP>
      <TRACK COLOR="EMPTY" TYPE="HORIZONTAL" />
    </TRACKGROUP>
  </SECTION>
  <SECTION X="12" Y="2">
    <TRACKGROUP>
      <TRACK COLOR="EMPTY" TYPE="HORIZONTAL" />
    </TRACKGROUP>
  </SECTION>
  <SECTION X="13" Y="2">
    <TRACKGROUP>
      <TRACK COLOR="EMPTY" TYPE="HORIZONTAL" />
    </TRACKGROUP>
  </SECTION>
  <SECTION X="14" Y="2">
    <TRACKGROUP>
      <TRACK COLOR="EMPTY" TYPE="HORIZONTAL" />
    </TRACKGROUP>
  </SECTION>
  <SECTION X="15" Y="2">
    <TRACKGROUP>
      <TRACK COLOR="EMPTY" TYPE="HORIZONTAL" />
    </TRACKGROUP>
  </SECTION>
  <SECTION X="16" Y="2">
    <TRACKGROUP>
      <TRACK COLOR="EMPTY" TYPE="HORIZONTAL" />
    </TRACKGROUP>
  </SECTION>
</TESTCASE><TESTCASE NUMBER="2" COMMENTS="Position Train 1 in  Block Block 1">
  <TRIGGER>
    <BLOCK X="20" Y="43" NAME="Block 1" />
  </TRIGGER>
  <SECTION X="1" Y="2">
    <TRACKGROUP>
      <TRACK COLOR="OCCUPIED" TYPE="HORIZONTAL" />
    </TRACKGROUP>
  </SECTION>
  <SECTION X="2" Y="2">
    <TRACKGROUP>
      <TRACK COLOR="OCCUPIED" TYPE="HORIZONTAL" />
    </TRACKGROUP>
  </SECTION>
</TESTCASE><TESTCASE NUMBER="3" COMMENTS="Setting Sensor">
  <TRIGGER>
    <IOSPEC JMRIPREFIX="IS" DECADDR="2" USER_NAME="Detect 2" STATE="4" DELAY="" />
  </TRIGGER>
  <BLOCK TRAINS="1" TRAIN="East Express" NAME="Block 1" />
</TESTCASE><TESTCASE NUMBER="4" COMMENTS="Setting Sensor">
  <TRIGGER>
    <IOSPEC JMRIPREFIX="IS" DECADDR="1" STATE="2" DELAY="" />
  </TRIGGER>
  <SECTION X="3" Y="2">
    <TRACKGROUP>
      <TRACK COLOR="OCCUPIED" TYPE="HORIZONTAL" />
    </TRACKGROUP>
  </SECTION>
  <SECTION X="4" Y="2">
    <TRACKGROUP>
      <TRACK COLOR="OCCUPIED" TYPE="HORIZONTAL" />
    </TRACKGROUP>
  </SECTION>
  <BLOCK TRAINS="0" NAME="Block 1" />
  <BLOCK TRAINS="1" TRAIN="East Express" NAME="Block 2" />
</TESTCASE><TESTCASE NUMBER="5" COMMENTS="Setting Sensor">
  <TRIGGER>
    <IOSPEC JMRIPREFIX="IS" DECADDR="3" USER_NAME="Detect 3" STATE="4" DELAY="" />
  </TRIGGER>
  <SECTION X="1" Y="2">
    <TRACKGROUP>
      <TRACK COLOR="EMPTY" TYPE="HORIZONTAL" />
    </TRACKGROUP>
  </SECTION>
  <SECTION X="2" Y="2">
    <TRACKGROUP>
      <TRACK COLOR="EMPTY" TYPE="HORIZONTAL" />
    </TRACKGROUP>
  </SECTION>
</TESTCASE><TESTCASE NUMBER="6" COMMENTS="Setting Sensor">
  <TRIGGER>
    <IOSPEC JMRIPREFIX="IS" DECADDR="2" STATE="2" DELAY="" />
  </TRIGGER>
  <SECTION X="5" Y="2">
    <TRACKGROUP>
      <TRACK COLOR="OCCUPIED" TYPE="HORIZONTAL" />
    </TRACKGROUP>
  </SECTION>
  <SECTION X="6" Y="2">
    <TRACKGROUP>
      <TRACK COLOR="OCCUPIED" TYPE="HORIZONTAL" />
    </TRACKGROUP>
  </SECTION>
  <BLOCK TRAINS="0" NAME="Block 2" />
  <BLOCK TRAINS="1" TRAIN="East Express" NAME="Block 3" />
</TESTCASE><TESTCASE NUMBER="7" COMMENTS="Setting Sensor">
  <TRIGGER>
    <IOSPEC JMRIPREFIX="IS" DECADDR="3" STATE="2" DELAY="" />
  </TRIGGER>
  <SECTION X="3" Y="2">
    <TRACKGROUP>
      <TRACK COLOR="EMPTY" TYPE="HORIZONTAL" />
    </TRACKGROUP>
  </SECTION>
  <SECTION X="4" Y="2">
    <TRACKGROUP>
      <TRACK COLOR="EMPTY" TYPE="HORIZONTAL" />
    </TRACKGROUP>
  </SECTION>
</TESTCASE><TESTCASE NUMBER="8" COMMENTS="Delaying for moving Train 1">
  <TRIGGER>
    <TRAIN DELAY="" TRAIN_SYMBOL="1" ACTION="TRAIN_MOVED" X="199" Y="37" />
  </TRIGGER>
  <SECTION X="5" Y="2">
    <TRACKGROUP>
      <TRACK COLOR="EMPTY" TYPE="HORIZONTAL" />
    </TRACKGROUP>
  </SECTION>
  <SECTION X="6" Y="2">
    <TRACKGROUP>
      <TRACK COLOR="EMPTY" TYPE="HORIZONTAL" />
    </TRACKGROUP>
  </SECTION>
  <BLOCK TRAINS="0" NAME="Block 3" />
  <BLOCK TRAINS="1" TRAIN="East Express" NAME="Block 5" />
</TESTCASE><TESTCASE NUMBER="9" COMMENTS="Setting Sensor">
  <TRIGGER>
    <IOSPEC JMRIPREFIX="IS" DECADDR="6" USER_NAME="Detect 6" STATE="4" DELAY="" />
  </TRIGGER>
  <SECTION X="9" Y="2">
    <TRACKGROUP>
      <TRACK COLOR="OCCUPIED" TYPE="HORIZONTAL" />
    </TRACKGROUP>
  </SECTION>
  <SECTION X="10" Y="2">
    <TRACKGROUP>
      <TRACK COLOR="OCCUPIED" TYPE="HORIZONTAL" />
    </TRACKGROUP>
  </SECTION>
</TESTCASE><TESTCASE NUMBER="10" COMMENTS="Setting Sensor">
  <TRIGGER>
    <IOSPEC JMRIPREFIX="IS" DECADDR="7" USER_NAME="Detect 7" STATE="4" DELAY="" />
  </TRIGGER>
  <SECTION X="9" Y="2">
    <TRACKGROUP>
      <TRACK COLOR="DARK" TYPE="HORIZONTAL" />
    </TRACKGROUP>
  </SECTION>
  <SECTION X="10" Y="2">
    <TRACKGROUP>
      <TRACK COLOR="DARK" TYPE="HORIZONTAL" />
    </TRACKGROUP>
  </SECTION>
  <SECTION X="11" Y="2">
    <TRACKGROUP>
      <TRACK COLOR="OCCUPIED" TYPE="HORIZONTAL" />
    </TRACKGROUP>
  </SECTION>
  <SECTION X="12" Y="2">
    <TRACKGROUP>
      <TRACK COLOR="OCCUPIED" TYPE="HORIZONTAL" />
    </TRACKGROUP>
  </SECTION>
  <BLOCK TRAINS="0" NAME="Block 5" />
  <BLOCK TRAINS="1" TRAIN="East Express" NAME="Block 6" />
</TESTCASE><TESTCASE NUMBER="11" COMMENTS="Setting Sensor">
  <TRIGGER>
    <IOSPEC JMRIPREFIX="IS" DECADDR="6" STATE="2" DELAY="" />
  </TRIGGER>
  <SECTION X="13" Y="2">
    <TRACKGROUP>
      <TRACK COLOR="OCCUPIED" TYPE="HORIZONTAL" />
    </TRACKGROUP>
  </SECTION>
  <SECTION X="14" Y="2">
    <TRACKGROUP>
      <TRACK COLOR="OCCUPIED" TYPE="HORIZONTAL" />
    </TRACKGROUP>
  </SECTION>
  <BLOCK TRAINS="0" NAME="Block 6" />
  <BLOCK TRAINS="1" TRAIN="East Express" NAME="Block 7" />
</TESTCASE><TESTCASE NUMBER="12" COMMENTS="Setting Sensor">
  <TRIGGER>
    <IOSPEC JMRIPREFIX="IS" DECADDR="9" USER_NAME="Detect 9" STATE="4" DELAY="" />
  </TRIGGER>
  <SECTION X="11" Y="2">
    <TRACKGROUP>
      <TRACK COLOR="EMPTY" TYPE="HORIZONTAL" />
    </TRACKGROUP>
  </SECTION>
  <SECTION X="12" Y="2">
    <TRACKGROUP>
      <TRACK COLOR="EMPTY" TYPE="HORIZONTAL" />
    </TRACKGROUP>
  </SECTION>
</TESTCASE><TESTCASE NUMBER="13" COMMENTS="Setting Sensor">
  <TRIGGER>
    <IOSPEC JMRIPREFIX="IS" DECADDR="7" STATE="2" DELAY="" />
  </TRIGGER>
  <SECTION X="15" Y="2">
    <TRACKGROUP>
      <TRACK COLOR="OCCUPIED" TYPE="HORIZONTAL" />
    </TRACKGROUP>
  </SECTION>
  <SECTION X="16" Y="2">
    <TRACKGROUP>
      <TRACK COLOR="OCCUPIED" TYPE="HORIZONTAL" />
    </TRACKGROUP>
  </SECTION>
  <BLOCK TRAINS="0" NAME="Block 7" />
  <BLOCK TRAINS="1" TRAIN="East Express" NAME="Block 9" />
</TESTCASE><TESTCASE NUMBER="14" COMMENTS="Setting Sensor">
  <TRIGGER>
    <IOSPEC JMRIPREFIX="IS" DECADDR="9" STATE="2" DELAY="" />
  </TRIGGER>
  <SECTION X="13" Y="2">
    <TRACKGROUP>
      <TRACK COLOR="EMPTY" TYPE="HORIZONTAL" />
    </TRACKGROUP>
  </SECTION>
  <SECTION X="14" Y="2">
    <TRACKGROUP>
      <TRACK COLOR="EMPTY" TYPE="HORIZONTAL" />
    </TRACKGROUP>
  </SECTION>
</TESTCASE><TESTCASE NUMBER="15" COMMENTS="Setting Sensor">
  <TRIGGER>
    <IOSPEC JMRIPREFIX="IS" DECADDR="9" USER_NAME="Detect 9" STATE="4" DELAY="" />
  </TRIGGER>
  <SECTION X="15" Y="2">
    <TRACKGROUP>
      <TRACK COLOR="EMPTY" TYPE="HORIZONTAL" />
    </TRACKGROUP>
  </SECTION>
  <SECTION X="16" Y="2">
    <TRACKGROUP>
      <TRACK COLOR="EMPTY" TYPE="HORIZONTAL" />
    </TRACKGROUP>
  </SECTION>
</TESTCASE><TESTCASE NUMBER="16" COMMENTS="Setting Sensor">
  <TRIGGER>
    <IOSPEC JMRIPREFIX="IS" DECADDR="7" USER_NAME="Detect 7" STATE="4" DELAY="" />
  </TRIGGER>
  <SECTION X="15" Y="2">
    <TRACKGROUP>
      <TRACK COLOR="OCCUPIED" TYPE="HORIZONTAL" />
    </TRACKGROUP>
  </SECTION>
  <SECTION X="16" Y="2">
    <TRACKGROUP>
      <TRACK COLOR="OCCUPIED" TYPE="HORIZONTAL" />
    </TRACKGROUP>
  </SECTION>
</TESTCASE><TESTCASE NUMBER="17" COMMENTS="Setting Sensor">
  <TRIGGER>
    <IOSPEC JMRIPREFIX="IS" DECADDR="9" STATE="2" DELAY="" />
  </TRIGGER>
  <SECTION X="13" Y="2">
    <TRACKGROUP>
      <TRACK COLOR="OCCUPIED" TYPE="HORIZONTAL" />
    </TRACKGROUP>
  </SECTION>
  <SECTION X="14" Y="2">
    <TRACKGROUP>
      <TRACK COLOR="OCCUPIED" TYPE="HORIZONTAL" />
    </TRACKGROUP>
  </SECTION>
  <BLOCK TRAINS="1" NAME="Block 7" />
  <BLOCK TRAINS="0" NAME="Block 9" />
</TESTCASE><TESTCASE NUMBER="18" COMMENTS="Setting Sensor">
  <TRIGGER>
    <IOSPEC JMRIPREFIX="IS" DECADDR="6" USER_NAME="Detect 6" STATE="4" DELAY="" />
  </TRIGGER>
  <SECTION X="15" Y="2">
    <TRACKGROUP>
      <TRACK COLOR="EMPTY" TYPE="HORIZONTAL" />
    </TRACKGROUP>
  </SECTION>
  <SECTION X="16" Y="2">
    <TRACKGROUP>
      <TRACK COLOR="EMPTY" TYPE="HORIZONTAL" />
    </TRACKGROUP>
  </SECTION>
</TESTCASE><TESTCASE NUMBER="19" COMMENTS="Setting Sensor">
  <TRIGGER>
    <IOSPEC JMRIPREFIX="IS" DECADDR="7" STATE="2" DELAY="" />
  </TRIGGER>
  <SECTION X="11" Y="2">
    <TRACKGROUP>
      <TRACK COLOR="OCCUPIED" TYPE="HORIZONTAL" />
    </TRACKGROUP>
  </SECTION>
  <SECTION X="12" Y="2">
    <TRACKGROUP>
      <TRACK COLOR="OCCUPIED" TYPE="HORIZONTAL" />
    </TRACKGROUP>
  </SECTION>
  <BLOCK TRAINS="1" NAME="Block 6" />
  <BLOCK TRAINS="0" NAME="Block 7" />
</TESTCASE><TESTCASE NUMBER="20" COMMENTS="Setting Sensor">
  <TRIGGER>
    <IOSPEC JMRIPREFIX="IS" DECADDR="6" STATE="2" DELAY="" />
  </TRIGGER>
  <SECTION X="13" Y="2">
    <TRACKGROUP>
      <TRACK COLOR="EMPTY" TYPE="HORIZONTAL" />
    </TRACKGROUP>
  </SECTION>
  <SECTION X="14" Y="2">
    <TRACKGROUP>
      <TRACK COLOR="EMPTY" TYPE="HORIZONTAL" />
    </TRACKGROUP>
  </SECTION>
</TESTCASE><TESTCASE NUMBER="21" COMMENTS="Delaying for moving Train 1">
  <TRIGGER>
    <TRAIN DELAY="" TRAIN_SYMBOL="1" ACTION="TRAIN_MOVED" X="148" Y="38" />
  </TRIGGER>
  <SECTION X="9" Y="2">
    <TRACKGROUP>
      <TRACK COLOR="OCCUPIED" TYPE="HORIZONTAL" />
    </TRACKGROUP>
  </SECTION>
  <SECTION X="11" Y="2">
    <TRACKGROUP>
      <TRACK COLOR="EMPTY" TYPE="HORIZONTAL" />
    </TRACKGROUP>
  </SECTION>
  <SECTION X="12" Y="2">
    <TRACKGROUP>
      <TRACK COLOR="EMPTY" TYPE="HORIZONTAL" />
    </TRACKGROUP>
  </SECTION>
  <BLOCK TRAINS="1" TRAIN="East Express" NAME="Block 4" />
  <BLOCK TRAINS="0" NAME="Block 6" />
</TESTCASE><TESTCASE NUMBER="22" COMMENTS="Setting Sensor">
  <TRIGGER>
    <IOSPEC JMRIPREFIX="IS" DECADDR="3" USER_NAME="Detect 3" STATE="4" DELAY="" />
  </TRIGGER>
  <SECTION X="7" Y="2">
    <TRACKGROUP>
      <TRACK COLOR="OCCUPIED" TYPE="HORIZONTAL" />
    </TRACKGROUP>
  </SECTION>
  <SECTION X="8" Y="2">
    <TRACKGROUP>
      <TRACK COLOR="OCCUPIED" TYPE="HORIZONTAL" />
    </TRACKGROUP>
  </SECTION>
  <SECTION X="9" Y="2">
    <TRACKGROUP>
      <TRACK COLOR="DARK" TYPE="HORIZONTAL" />
    </TRACKGROUP>
  </SECTION>
</TESTCASE><TESTCASE NUMBER="23" COMMENTS="Setting Sensor">
  <TRIGGER>
    <IOSPEC JMRIPREFIX="IS" DECADDR="2" USER_NAME="Detect 2" STATE="4" DELAY="" />
  </TRIGGER>
  <SECTION X="5" Y="2">
    <TRACKGROUP>
      <TRACK COLOR="OCCUPIED" TYPE="HORIZONTAL" />
    </TRACKGROUP>
  </SECTION>
  <SECTION X="6" Y="2">
    <TRACKGROUP>
      <TRACK COLOR="OCCUPIED" TYPE="HORIZONTAL" />
    </TRACKGROUP>
  </SECTION>
  <SECTION X="7" Y="2">
    <TRACKGROUP>
      <TRACK COLOR="DARK" TYPE="HORIZONTAL" />
    </TRACKGROUP>
  </SECTION>
  <SECTION X="8" Y="2">
    <TRACKGROUP>
      <TRACK COLOR="DARK" TYPE="HORIZONTAL" />
    </TRACKGROUP>
  </SECTION>
  <BLOCK TRAINS="1" NAME="Block 3" />
  <BLOCK TRAINS="0" NAME="Block 4" />
</TESTCASE><TESTCASE NUMBER="24" COMMENTS="Setting Sensor">
  <TRIGGER>
    <IOSPEC JMRIPREFIX="IS" DECADDR="3" STATE="2" DELAY="" />
  </TRIGGER>
  <SECTION X="3" Y="2">
    <TRACKGROUP>
      <TRACK COLOR="OCCUPIED" TYPE="HORIZONTAL" />
    </TRACKGROUP>
  </SECTION>
  <SECTION X="4" Y="2">
    <TRACKGROUP>
      <TRACK COLOR="OCCUPIED" TYPE="HORIZONTAL" />
    </TRACKGROUP>
  </SECTION>
  <BLOCK TRAINS="1" NAME="Block 2" />
  <BLOCK TRAINS="0" NAME="Block 3" />
</TESTCASE><TESTCASE NUMBER="25" COMMENTS="Setting Sensor">
  <TRIGGER>
    <IOSPEC JMRIPREFIX="IS" DECADDR="1" USER_NAME="Detect 1" STATE="4" DELAY="" />
  </TRIGGER>
  <SECTION X="5" Y="2">
    <TRACKGROUP>
      <TRACK COLOR="EMPTY" TYPE="HORIZONTAL" />
    </TRACKGROUP>
  </SECTION>
  <SECTION X="6" Y="2">
    <TRACKGROUP>
      <TRACK COLOR="EMPTY" TYPE="HORIZONTAL" />
    </TRACKGROUP>
  </SECTION>
</TESTCASE><TESTCASE NUMBER="26" COMMENTS="Setting Sensor">
  <TRIGGER>
    <IOSPEC JMRIPREFIX="IS" DECADDR="2" STATE="2" DELAY="" />
  </TRIGGER>
  <SECTION X="1" Y="2">
    <TRACKGROUP>
      <TRACK COLOR="OCCUPIED" TYPE="HORIZONTAL" />
    </TRACKGROUP>
  </SECTION>
  <SECTION X="2" Y="2">
    <TRACKGROUP>
      <TRACK COLOR="OCCUPIED" TYPE="HORIZONTAL" />
    </TRACKGROUP>
  </SECTION>
  <BLOCK TRAINS="1" NAME="Block 1" />
  <BLOCK TRAINS="0" NAME="Block 2" />
</TESTCASE><TESTCASE NUMBER="27" COMMENTS="Setting Sensor">
  <TRIGGER>
    <IOSPEC JMRIPREFIX="IS" DECADDR="1" STATE="2" DELAY="" />
  </TRIGGER>
  <SECTION X="3" Y="2">
    <TRACKGROUP>
      <TRACK COLOR="EMPTY" TYPE="HORIZONTAL" />
    </TRACKGROUP>
  </SECTION>
  <SECTION X="4" Y="2">
    <TRACKGROUP>
      <TRACK COLOR="EMPTY" TYPE="HORIZONTAL" />
    </TRACKGROUP>
  </SECTION>
</TESTCASE><TESTCASE NUMBER="28" COMMENTS="Setting Sensor">
  <TRIGGER>
    <IOSPEC JMRIPREFIX="IS" DECADDR="1" USER_NAME="Detect 1" STATE="4" DELAY="" />
  </TRIGGER>
  <SECTION X="1" Y="2">
    <TRACKGROUP>
      <TRACK COLOR="EMPTY" TYPE="HORIZONTAL" />
    </TRACKGROUP>
  </SECTION>
  <SECTION X="2" Y="2">
    <TRACKGROUP>
      <TRACK COLOR="EMPTY" TYPE="HORIZONTAL" />
    </TRACKGROUP>
  </SECTION>
</TESTCASE><TESTCASE NUMBER="29" COMMENTS="Setting Sensor">
  <TRIGGER>
    <IOSPEC JMRIPREFIX="IS" DECADDR="2" USER_NAME="Detect 2" STATE="4" DELAY="" />
  </TRIGGER>
  <SECTION X="1" Y="2">
    <TRACKGROUP>
      <TRACK COLOR="OCCUPIED" TYPE="HORIZONTAL" />
    </TRACKGROUP>
  </SECTION>
  <SECTION X="2" Y="2">
    <TRACKGROUP>
      <TRACK COLOR="OCCUPIED" TYPE="HORIZONTAL" />
    </TRACKGROUP>
  </SECTION>
</TESTCASE><TESTCASE NUMBER="30" COMMENTS="Setting Sensor">
  <TRIGGER>
    <IOSPEC JMRIPREFIX="IS" DECADDR="1" STATE="2" DELAY="" />
  </TRIGGER>
  <SECTION X="3" Y="2">
    <TRACKGROUP>
      <TRACK COLOR="OCCUPIED" TYPE="HORIZONTAL" />
    </TRACKGROUP>
  </SECTION>
  <SECTION X="4" Y="2">
    <TRACKGROUP>
      <TRACK COLOR="OCCUPIED" TYPE="HORIZONTAL" />
    </TRACKGROUP>
  </SECTION>
  <BLOCK TRAINS="0" NAME="Block 1" />
  <BLOCK TRAINS="1" NAME="Block 2" />
</TESTCASE><TESTCASE NUMBER="31" COMMENTS="Setting Sensor">
  <TRIGGER>
    <IOSPEC JMRIPREFIX="IS" DECADDR="1" USER_NAME="Detect 1" STATE="4" DELAY="" />
  </TRIGGER>
  <SECTION X="1" Y="2">
    <TRACKGROUP>
      <TRACK COLOR="EMPTY" TYPE="HORIZONTAL" />
    </TRACKGROUP>
  </SECTION>
  <SECTION X="2" Y="2">
    <TRACKGROUP>
      <TRACK COLOR="EMPTY" TYPE="HORIZONTAL" />
    </TRACKGROUP>
  </SECTION>
</TESTCASE><TESTCASE NUMBER="32" COMMENTS="Setting Sensor">
  <TRIGGER>
    <IOSPEC JMRIPREFIX="IS" DECADDR="2" STATE="2" DELAY="" />
  </TRIGGER>
  <SECTION X="1" Y="2">
    <TRACKGROUP>
      <TRACK COLOR="OCCUPIED" TYPE="HORIZONTAL" />
    </TRACKGROUP>
  </SECTION>
  <SECTION X="2" Y="2">
    <TRACKGROUP>
      <TRACK COLOR="OCCUPIED" TYPE="HORIZONTAL" />
    </TRACKGROUP>
  </SECTION>
</TESTCASE><TESTCASE NUMBER="33" COMMENTS="Setting Sensor">
  <TRIGGER>
    <IOSPEC JMRIPREFIX="IS" DECADDR="2" USER_NAME="Detect 2" STATE="4" DELAY="" />
  </TRIGGER>
  <SECTION X="3" Y="2">
    <TRACKGROUP>
      <TRACK COLOR="EMPTY" TYPE="HORIZONTAL" />
    </TRACKGROUP>
  </SECTION>
  <SECTION X="4" Y="2">
    <TRACKGROUP>
      <TRACK COLOR="EMPTY" TYPE="HORIZONTAL" />
    </TRACKGROUP>
  </SECTION>
  <BLOCK TRAINS="1" NAME="Block 1" />
  <BLOCK TRAINS="0" NAME="Block 2" />
</TESTCASE><TESTCASE NUMBER="34" COMMENTS="Setting Sensor">
  <TRIGGER>
    <IOSPEC JMRIPREFIX="IS" DECADDR="1" STATE="2" DELAY="" />
  </TRIGGER>
  <SECTION X="3" Y="2">
    <TRACKGROUP>
      <TRACK COLOR="OCCUPIED" TYPE="HORIZONTAL" />
    </TRACKGROUP>
  </SECTION>
  <SECTION X="4" Y="2">
    <TRACKGROUP>
      <TRACK COLOR="OCCUPIED" TYPE="HORIZONTAL" />
    </TRACKGROUP>
  </SECTION>
  <BLOCK TRAINS="0" NAME="Block 1" />
  <BLOCK TRAINS="1" NAME="Block 2" />
</TESTCASE><TESTCASE NUMBER="35" COMMENTS="Setting Sensor">
  <TRIGGER>
    <IOSPEC JMRIPREFIX="IS" DECADDR="3" USER_NAME="Detect 3" STATE="4" DELAY="" />
  </TRIGGER>
  <SECTION X="1" Y="2">
    <TRACKGROUP>
      <TRACK COLOR="EMPTY" TYPE="HORIZONTAL" />
    </TRACKGROUP>
  </SECTION>
  <SECTION X="2" Y="2">
    <TRACKGROUP>
      <TRACK COLOR="EMPTY" TYPE="HORIZONTAL" />
    </TRACKGROUP>
  </SECTION>
</TESTCASE><TESTCASE NUMBER="36" COMMENTS="Setting Sensor">
  <TRIGGER>
    <IOSPEC JMRIPREFIX="IS" DECADDR="2" STATE="2" DELAY="" />
  </TRIGGER>
  <SECTION X="5" Y="2">
    <TRACKGROUP>
      <TRACK COLOR="OCCUPIED" TYPE="HORIZONTAL" />
    </TRACKGROUP>
  </SECTION>
  <SECTION X="6" Y="2">
    <TRACKGROUP>
      <TRACK COLOR="OCCUPIED" TYPE="HORIZONTAL" />
    </TRACKGROUP>
  </SECTION>
  <BLOCK TRAINS="0" NAME="Block 2" />
  <BLOCK TRAINS="1" NAME="Block 3" />
</TESTCASE><TESTCASE NUMBER="37" COMMENTS="Setting Sensor">
  <TRIGGER>
    <IOSPEC JMRIPREFIX="IS" DECADDR="1" USER_NAME="Detect 1" STATE="4" DELAY="" />
  </TRIGGER>
  <SECTION X="3" Y="2">
    <TRACKGROUP>
      <TRACK COLOR="EMPTY" TYPE="HORIZONTAL" />
    </TRACKGROUP>
  </SECTION>
  <SECTION X="4" Y="2">
    <TRACKGROUP>
      <TRACK COLOR="EMPTY" TYPE="HORIZONTAL" />
    </TRACKGROUP>
  </SECTION>
</TESTCASE><TESTCASE NUMBER="38" COMMENTS="Position Train 101 in  Block Block 1">
  <TRIGGER>
    <BLOCK X="19" Y="44" NAME="Block 1" />
  </TRIGGER>
  <SECTION X="1" Y="2">
    <TRACKGROUP>
      <TRACK COLOR="OCCUPIED" TYPE="HORIZONTAL" />
    </TRACKGROUP>
  </SECTION>
  <SECTION X="2" Y="2">
    <TRACKGROUP>
      <TRACK COLOR="OCCUPIED" TYPE="HORIZONTAL" />
    </TRACKGROUP>
  </SECTION>
</TESTCASE><TESTCASE NUMBER="39" COMMENTS="Setting Sensor">
  <TRIGGER>
    <IOSPEC JMRIPREFIX="IS" DECADDR="2" USER_NAME="Detect 2" STATE="4" DELAY="" />
  </TRIGGER>
  <BLOCK TRAINS="1" TRAIN="East Manifest" NAME="Block 1" />
</TESTCASE><TESTCASE NUMBER="40" COMMENTS="Setting Sensor">
  <TRIGGER>
    <IOSPEC JMRIPREFIX="IS" DECADDR="3" STATE="2" DELAY="" />
  </TRIGGER>
  <SECTION X="3" Y="2">
    <TRACKGROUP>
      <TRACK COLOR="OCCUPIED" TYPE="HORIZONTAL" />
    </TRACKGROUP>
  </SECTION>
  <SECTION X="4" Y="2">
    <TRACKGROUP>
      <TRACK COLOR="OCCUPIED" TYPE="HORIZONTAL" />
    </TRACKGROUP>
  </SECTION>
  <BLOCK TRAINS="0" NAME="Block 1" />
  <BLOCK TRAINS="1" TRAIN="East Manifest" NAME="Block 2" />
</TESTCASE><TESTCASE NUMBER="41" COMMENTS="Setting Sensor">
  <TRIGGER>
    <IOSPEC JMRIPREFIX="IS" DECADDR="1" STATE="2" DELAY="" />
  </TRIGGER>
  <SECTION X="5" Y="2">
    <TRACKGROUP>
      <TRACK COLOR="EMPTY" TYPE="HORIZONTAL" />
    </TRACKGROUP>
  </SECTION>
  <SECTION X="6" Y="2">
    <TRACKGROUP>
      <TRACK COLOR="EMPTY" TYPE="HORIZONTAL" />
    </TRACKGROUP>
  </SECTION>
  <SECTION X="7" Y="2">
    <TRACKGROUP>
      <TRACK COLOR="OCCUPIED" TYPE="HORIZONTAL" />
    </TRACKGROUP>
  </SECTION>
  <SECTION X="8" Y="2">
    <TRACKGROUP>
      <TRACK COLOR="OCCUPIED" TYPE="HORIZONTAL" />
    </TRACKGROUP>
  </SECTION>
  <BLOCK TRAINS="0" NAME="Block 3" />
  <BLOCK TRAINS="1" NAME="Block 4" />
</TESTCASE><TESTCASE NUMBER="42" COMMENTS="Setting Sensor">
  <TRIGGER>
    <IOSPEC JMRIPREFIX="IS" DECADDR="2" STATE="2" DELAY="" />
  </TRIGGER>
  <SECTION X="1" Y="2">
    <TRACKGROUP>
      <TRACK COLOR="EMPTY" TYPE="HORIZONTAL" />
    </TRACKGROUP>
  </SECTION>
  <SECTION X="2" Y="2">
    <TRACKGROUP>
      <TRACK COLOR="EMPTY" TYPE="HORIZONTAL" />
    </TRACKGROUP>
  </SECTION>
</TESTCASE><TESTCASE NUMBER="43" COMMENTS="Delaying for Remove Train on train 101">
  <TRIGGER>
    <TRAIN DELAY="" TRAIN_SYMBOL="101" ACTION="Remove Train" />
  </TRIGGER>
  <SECTION X="3" Y="2">
    <TRACKGROUP>
      <TRACK COLOR="EMPTY" TYPE="HORIZONTAL" />
    </TRACKGROUP>
  </SECTION>
  <SECTION X="4" Y="2">
    <TRACKGROUP>
      <TRACK COLOR="EMPTY" TYPE="HORIZONTAL" />
    </TRACKGROUP>
  </SECTION>
  <BLOCK TRAINS="0" NAME="Block 2" />
</TESTCASE><TESTCASE NUMBER="44" COMMENTS="Setting Sensor">
  <TRIGGER>
    <IOSPEC JMRIPREFIX="IS" DECADDR="3" USER_NAME="Detect 3" STATE="4" DELAY="" />
  </TRIGGER>
</TESTCASE><TESTCASE NUMBER="45" COMMENTS="Setting Sensor">
  <TRIGGER>
    <IOSPEC JMRIPREFIX="IS" DECADDR="1" USER_NAME="Detect 1" STATE="4" DELAY="" />
  </TRIGGER>
  <SECTION X="5" Y="2">
    <TRACKGROUP>
      <TRACK COLOR="OCCUPIED" TYPE="HORIZONTAL" />
    </TRACKGROUP>
  </SECTION>
  <SECTION X="6" Y="2">
    <TRACKGROUP>
      <TRACK COLOR="OCCUPIED" TYPE="HORIZONTAL" />
    </TRACKGROUP>
  </SECTION>
  <SECTION X="7" Y="2">
    <TRACKGROUP>
      <TRACK COLOR="DARK" TYPE="HORIZONTAL" />
    </TRACKGROUP>
  </SECTION>
  <SECTION X="8" Y="2">
    <TRACKGROUP>
      <TRACK COLOR="DARK" TYPE="HORIZONTAL" />
    </TRACKGROUP>
  </SECTION>
  <BLOCK TRAINS="1" NAME="Block 3" />
  <BLOCK TRAINS="0" NAME="Block 4" />
</TESTCASE><TESTCASE NUMBER="46" COMMENTS="Position Train 201 in  Block Block 1">
  <TRIGGER>
    <BLOCK X="23" Y="43" NAME="Block 1" />
  </TRIGGER>
  <SECTION X="1" Y="2">
    <TRACKGROUP>
      <TRACK COLOR="OCCUPIED" TYPE="HORIZONTAL" />
    </TRACKGROUP>
  </SECTION>
  <SECTION X="2" Y="2">
    <TRACKGROUP>
      <TRACK COLOR="OCCUPIED" TYPE="HORIZONTAL" />
    </TRACKGROUP>
  </SECTION>
</TESTCASE><TESTCASE NUMBER="47" COMMENTS="Setting Sensor">
  <TRIGGER>
    <IOSPEC JMRIPREFIX="IS" DECADDR="2" USER_NAME="Detect 2" STATE="4" DELAY="" />
  </TRIGGER>
  <BLOCK TRAINS="1" TRAIN="East Peddler" NAME="Block 1" />
</TESTCASE><TESTCASE NUMBER="48" COMMENTS="Setting Sensor">
  <TRIGGER>
    <IOSPEC JMRIPREFIX="IS" DECADDR="1" STATE="2" DELAY="" />
  </TRIGGER>
  <SECTION X="3" Y="2">
    <TRACKGROUP>
      <TRACK COLOR="OCCUPIED" TYPE="HORIZONTAL" />
    </TRACKGROUP>
  </SECTION>
  <SECTION X="4" Y="2">
    <TRACKGROUP>
      <TRACK COLOR="OCCUPIED" TYPE="HORIZONTAL" />
    </TRACKGROUP>
  </SECTION>
  <BLOCK TRAINS="0" NAME="Block 1" />
  <BLOCK TRAINS="2" TRAIN="East Express" NAME="Block 2" />
  <BLOCK TRAINS="0" NAME="Block 3" />
</TESTCASE><TESTCASE NUMBER="49" COMMENTS="Setting Sensor">
  <TRIGGER>
    <IOSPEC JMRIPREFIX="IS" DECADDR="3" STATE="2" DELAY="" />
  </TRIGGER>
  <SECTION X="1" Y="2">
    <TRACKGROUP>
      <TRACK COLOR="EMPTY" TYPE="HORIZONTAL" />
    </TRACKGROUP>
  </SECTION>
  <SECTION X="2" Y="2">
    <TRACKGROUP>
      <TRACK COLOR="EMPTY" TYPE="HORIZONTAL" />
    </TRACKGROUP>
  </SECTION>
  <BLOCK TRAIN="East Peddler" NAME="Block 2" />
</TESTCASE><TESTCASE NUMBER="50" COMMENTS="Position Train 2 in  Block Block 7">
  <TRIGGER>
    <BLOCK X="286" Y="44" NAME="Block 7" />
  </TRIGGER>
  <SECTION X="5" Y="2">
    <TRACKGROUP>
      <TRACK COLOR="EMPTY" TYPE="HORIZONTAL" />
    </TRACKGROUP>
  </SECTION>
  <SECTION X="6" Y="2">
    <TRACKGROUP>
      <TRACK COLOR="EMPTY" TYPE="HORIZONTAL" />
    </TRACKGROUP>
  </SECTION>
  <BLOCK TRAIN="East Express" NAME="Block 2" />
</TESTCASE><TESTCASE NUMBER="51" COMMENTS="Setting Sensor">
  <TRIGGER>
    <IOSPEC JMRIPREFIX="IS" DECADDR="6" USER_NAME="Detect 6" STATE="4" DELAY="" />
  </TRIGGER>
  <BLOCK TRAIN="East Peddler" NAME="Block 2" />
  <BLOCK TRAINS="1" TRAIN="West Express" NAME="Block 7" />
</TESTCASE></DOCUMENT>